央视移动,#genre#
CCTV1,http://39.136.48.8:8089/PLTV/88888888/224/3221225859/index.m3u8
CCTV1,http://39.136.48.52:8089/PLTV/88888888/224/3221225859/index.m3u8
CCTV1,http://39.136.48.6:8089/PLTV/88888888/224/3221225859/index.m3u8
CCTV1,http://39.136.48.51:8089/PLTV/88888888/224/3221225859/index.m3u8
CCTV1,http://39.136.48.27:8089/PLTV/88888888/224/3221225859/index.m3u8
CCTV2,http://39.136.48.8:8089/PLTV/88888888/224/3221225751/index.m3u8
CCTV2,http://39.136.48.51:8089/PLTV/88888888/224/3221225751/index.m3u8
CCTV2,http://39.136.48.52:8089/PLTV/88888888/224/3221225751/index.m3u8
CCTV2,http://39.136.48.100:8089/PLTV/88888888/224/3221225751/index.m3u8
CCTV2,http://39.136.48.7:8089/PLTV/88888888/224/3221225751/index.m3u8
CCTV2,http://39.136.48.4:8089/PLTV/88888888/224/3221225751/index.m3u8
CCTV2,http://39.136.48.6:8089/PLTV/88888888/224/3221225751/index.m3u8
CCTV3,http://[2409:8087:2001:20:2800:0:df6e:eb07]/ott.mobaibox.com/PLTV/肥羊/224/3221227295/index.m3u8
CCTV3,http://[2409:8087:2001:20:2800:0:df6e:eb26]/ott.mobaibox.com/PLTV/1/224/3221228188/index.m3u8
CCTV3备用,http://dbiptv.sn.chinamobile.com/PLTV/88888890/224/3221226397/index.m3u8
cctv3jk,http://117.72.68.25:9930/migu.php?id=cctv3jk$咪咕代理
cctv3jk,http://101.200.122.188/tv/migu085.php?id=cctv3jk$咪咕代理
cctv3jk,http://ottrrs.hl.chinamobile.com/PLTV/88888888/8/3221226021/index.m3u8$黑龙江移动v4
cctv3jk,http://gslbservzqhsw.itv.cmvideo.cn/1.m3u8?channel-id=bestzb&Contentid=5000000004000008883&livemode=1&stbId=3$全国移动内网
cctv3jk,http://gslbservzqhsw.itv.cmvideo.cn/1.m3u8?channel-id=ystenlive&Contentid=1000000001000013682&livemode=1&stbId=3$全国移动内网
cctv3jk,http://[2409:8087:5e00:24::1e]:6060/200000001898/460000089800010212/1.m3u8$海南移动V6
CCTV4,http://39.136.48.51:8089/PLTV/88888888/224/3221225757/index.m3u8
CCTV4,http://39.136.48.52:8089/PLTV/88888888/224/3221225757/index.m3u8
CCTV4,http://39.136.48.29:8089/PLTV/88888888/224/3221226395/index.m3u8
CCTV4,http://39.136.48.29:8089/PLTV/88888888/224/3221226318/index.m3u8
CCTV4,http://39.136.48.29:8089/PLTV/88888888/224/3221225757/index.m3u8
CCTV4,http://39.136.48.6:8089/PLTV/88888888/224/3221225757/index.m3u8
CCTV4,http://39.136.48.28:8089/PLTV/88888888/224/3221226318/index.m3u8
CCTV4,http://39.136.48.7:8089/PLTV/88888888/224/3221225757/index.m3u8
CCTV4,http://39.136.48.8:8089/PLTV/88888888/224/3221225757/index.m3u8
CCTV4,http://39.136.48.6:8089/PLTV/88888888/224/3221226395/index.m3u8
CCTV5,http://39.136.48.8:8089/PLTV/88888888/224/3221226425/index.m3u8
CCTV5,http://39.136.48.8:8089/PLTV/88888888/224/3221225901/index.m3u8
CCTV5,http://39.136.48.100:8089/PLTV/88888888/224/3221226425/index.m3u8
CCTV5,http://39.136.48.6:8089/PLTV/88888888/224/3221226425/index.m3u8
CCTV5wn,http://[2409:8087:1a01:df::7005]/ottrrs.hl.chinamobile.com/PLTV/88888888/224/3221226019/index.m3u8
CCTV5wn,http://nn.7x9d.cn/组播/百视通.php?id=cctv5phd8m/8000000
CCTV5wn,http://42.48.17.204:808/hls/5/index.m3u8
CCTV5+,http://39.136.48.6:8089/PLTV/88888888/224/3221225781/index.m3u8
CCTV5+,http://39.136.48.52:8089/PLTV/88888888/224/3221225781/index.m3u8
CCTV5+,http://39.136.48.51:8089/PLTV/88888888/224/3221225781/index.m3u8
CCTV5+,http://39.136.48.8:8089/PLTV/88888888/224/3221225781/index.m3u8
CCTV5+wn,http://nn.7x9d.cn/组播/百视通.php?id=cctv5phd8m/8000000
CCTV5+wn,http://nn.7x9d.cn/地方台/北方广电1.php?id=064
CCTV5+wn,http://42.48.17.204:808/hls/6/index.m3u8
cctv6jk,http://mobilelive-ds.ysp.cctv.cn/ysp/2013693901.m3u8$官方CDN高清
cctv6jk,http://mobilelive-timeshift.ysp.cctv.cn/timeshift/ysp/2013693901/timeshift.m3u8?delay=0&cdn=5202$官方CDN高清
cctv6jk,http://117.72.68.25:9930/migu.php?id=cctv6jk$咪咕代理
cctv6jk,http://101.200.122.188/tv/migu085.php?id=cctv6jk$咪咕代理
cctv6jk,http://ottrrs.hl.chinamobile.com/PLTV/88888888/8/3221226010/index.m3u8$黑龙江移动v4
cctv6jk,http://gslbservzqhsw.itv.cmvideo.cn/1.m3u8?channel-id=bestzb&Contentid=5000000004000008886&livemode=1&stbId=3$全国移动内网
cctv6jk,http://gslbservzqhsw.itv.cmvideo.cn/1.m3u8?channel-id=ystenlive&Contentid=1000000001000001737&livemode=1&stbId=3$全国移动内网
cctv6jk,http://[2409:8087:5e00:24::1e]:6060/200000001898/460000089800010214/1.m3u8$海南移动V6
CCTV7,http://39.136.48.6:8089/PLTV/88888888/224/3221225753/index.m3u8
CCTV7,http://39.136.48.51:8089/PLTV/88888888/224/3221225753/index.m3u8
CCTV7,http://39.136.48.7:8089/PLTV/88888888/224/3221225753/index.m3u8
CCTV7,http://39.136.48.8:8089/PLTV/88888888/224/3221225753/index.m3u8
CCTV7,http://39.136.48.52:8089/PLTV/88888888/224/3221225753/index.m3u8
cctv7jk,http://117.72.68.25:9930/migu.php?id=cctv7jk$咪咕代理
cctv7jk,http://101.200.122.188/tv/migu085.php?id=cctv7jk$咪咕代理
cctv7jk,http://ottrrs.hl.chinamobile.com/PLTV/88888888/8/3221225733/index.m3u8$黑龙江移动v4
cctv7jk,http://gslbservzqhsw.itv.cmvideo.cn/1.m3u8?channel-id=bestzb&Contentid=5000000011000031104&livemode=1&stbId=3$全国移动内网
cctv7jk,http://gslbservzqhsw.itv.cmvideo.cn/1.m3u8?channel-id=ystenlive&Contentid=1000000001000024341&livemode=1&stbId=3$全国移动内网
cctv7jk,http://[2409:8087:5e00:24::1e]:6060/200000001898/460000089800010215/1.m3u8$海南移动V6
cctv8jk,http://117.72.68.25:9930/migu.php?id=cctv8jk$咪咕代理
cctv8jk,http://101.200.122.188/tv/migu085.php?id=cctv8jk$咪咕代理
cctv8jk,http://ottrrs.hl.chinamobile.com/PLTV/88888888/224/3221226008/index.m3u8$黑龙江移动v4
cctv8jk,http://gslbservzqhsw.itv.cmvideo.cn/1.m3u8?channel-id=bestzb&Contentid=5000000004000008888&livemode=1&stbId=3$全国移动内网
cctv8jk,http://gslbservzqhsw.itv.cmvideo.cn/1.m3u8?channel-id=ystenlive&Contentid=1000000001000031433&livemode=1&stbId=3$全国移动内网
cctv8jk,http://[2409:8087:5e00:24::1e]:6060/200000001898/460000089800010216/1.m3u8$海南移动V6
CCTV9,http://39.136.48.6:8089/PLTV/88888888/224/3221225759/index.m3u8
CCTV9,http://39.136.48.7:8089/PLTV/88888888/224/3221225759/index.m3u8
CCTV9,http://39.136.48.51:8089/PLTV/88888888/224/3221225759/index.m3u8
CCTV9,http://39.136.48.8:8089/PLTV/88888888/224/3221225759/index.m3u8
CCTV9,http://39.136.48.52:8089/PLTV/88888888/224/3221225759/index.m3u8
CCTV10,http://39.136.48.8:8089/PLTV/88888888/224/3221225761/index.m3u8
CCTV10,http://39.136.48.51:8089/PLTV/88888888/224/3221225761/index.m3u8
CCTV10,http://39.136.48.6:8089/PLTV/88888888/224/3221225761/index.m3u8
CCTV10,http://39.136.48.7:8089/PLTV/88888888/224/3221225761/index.m3u8
CCTV11,http://39.136.48.29:8089/PLTV/88888888/224/3221226407/index.m3u8
CCTV11,http://39.136.48.51:8089/PLTV/88888888/224/3221226407/index.m3u8
CCTV12,http://39.136.48.8:8089/PLTV/88888888/224/3221225763/index.m3u8
CCTV12,http://39.136.48.6:8089/PLTV/88888888/224/3221225763/index.m3u8
CCTV12,http://39.136.48.7:8089/PLTV/88888888/224/3221225763/index.m3u8
CCTV12,http://39.136.48.51:8089/PLTV/88888888/224/3221225763/index.m3u8
CCTV13,http://39.136.48.29:8089/PLTV/88888888/224/3221226328/index.m3u8
CCTV13,http://39.136.48.6:8089/PLTV/88888888/224/3221226328/index.m3u8
CCTV13,http://39.136.48.51:8089/PLTV/88888888/224/3221226328/index.m3u8
CCTV13,http://39.136.48.52:8089/PLTV/88888888/224/3221226328/index.m3u8
CCTV14,http://39.136.48.51:8089/PLTV/88888888/224/3221225765/index.m3u8
CCTV14,http://39.136.48.7:8089/PLTV/88888888/224/3221225765/index.m3u8
CCTV14,http://39.136.48.8:8089/PLTV/88888888/224/3221225765/index.m3u8
CCTV14,http://39.136.48.29:8089/PLTV/88888888/224/3221225765/index.m3u8
CCTV14,http://39.136.48.6:8089/PLTV/88888888/224/3221225765/index.m3u8
CCTV15,http://39.136.48.100:8089/PLTV/88888888/224/3221226409/index.m3u8
CCTV15,http://39.136.48.51:8089/PLTV/88888888/224/3221226409/index.m3u8
CCTV15,http://39.136.48.29:8089/PLTV/88888888/224/3221226409/index.m3u8
CCTV15,http://39.136.48.28:8089/PLTV/88888888/224/3221226409/index.m3u8
CCTV-16,奥林匹克 高清,http://lzoq.hk3c.ml/daili/liugongzi.php?id=CCTV-16_4000
CCTV-16,奥林匹克 4K,http://lzoq.hk3c.ml/daili/liugongzi.php?id=CCTV-16-4K_8000
CCTV16,http://cyz32.livehbindex.hbcatv.cn/live/50000020c65d4a6b9b4e278405124734.m3u8?bitrate=2300&pt=5
CCTV16wn,http://[2409:8087:5e00:24::1e]:6060/000000001000/1000000006000233001/1.m3u8
CCTV16wn,http://[2409:8087:1a01:df::7005]/ottrrs.hl.chinamobile.com/PLTV/88888888/224/3221226100/index.m3u8
CCTV16wn,http://nn.7x9d.cn/组播/百视通.php?id=cctv5phd8m/8000000
CCTV16kj,http://ottrrs.hl.chinamobile.com/PLTV/88888888/8/3221226100/index.m3u8
cctv16jk,http://ottrrs.hl.chinamobile.com/PLTV/88888888/8/3221226100/index.m3u8$黑龙江移动v4
cctv16jk,http://gslbservzqhsw.itv.cmvideo.cn/1.m3u8?channel-id=bestzb&Contentid=5000000008000023254&livemode=1&stbId=3$全国移动内网4K
cctv16jk,http://gslbservzqhsw.itv.cmvideo.cn/1.m3u8?channel-id=ystenlive&Contentid=1000000006000233002&livemode=1&stbId=3$全国移动内网
cctv16jk,http://[2409:8087:5e00:24::1e]:6060/200000001898/460000089800010142/1.m3u8$海南移动V6
CCTV17,http://39.136.48.51:8089/PLTV/88888888/224/3221226093/index.m3u8
CCTV17,http://39.136.48.29:8089/PLTV/88888888/224/3221226093/index.m3u8
CCTV17,http://39.136.48.28:8089/PLTV/88888888/224/3221226093/index.m3u8
CCTV17,http://39.136.48.8:8089/PLTV/88888888/224/3221226093/index.m3u8
CETV1,http://39.136.48.25:8089/PLTV/88888888/224/3221226252/index.m3u8
CGTN,http://39.136.48.29:8089/PLTV/88888888/224/3221226320/index.m3u8
CGTN西班牙,http://39.136.48.8:8089/PLTV/88888888/224/3221226324/index.m3u8
CCTV15 8M,https://live.v1.mk/api/bestv.php?id=cctv15hd8m/8000000
CCTV16 8M,https://live.v1.mk/api/bestv.php?id=cctv16hd8m/8000000
CCTV16-4K,https://live.v1.mk/api/bestv.php?id=cctv16hd4k/15000000
CCTV17 8M,https://live.v1.mk/api/bestv.php?id=cctv17hd8m/8000000
CCTV16,http://[2409:8087:1e03:21::2]:6060/cms001/ch00000090990000001258/index.m3u8
CCTV17,http://[2409:8087:1e03:21::2]:6060/cms001/ch00000090990000001241/index.m3u8
CCTV-4K,https://live.goodiptv.club/api/cqyx.php?id=CCTV4K
CCTV-4K,http://liveop.cctv.cn/hls/4KHD/playlist.m3u8
CCTV-8K,http://[2409:8087:2001:20:2800:0:df6e:eb02]/ott.mobaibox.com/PLTV/3/224/3221228165/index.m3u8

卫视移动,#genre#
安徽卫视,http://39.136.48.51:8089/PLTV/88888888/224/3221225775/index.m3u8
安徽卫视,http://39.136.48.6:8089/PLTV/88888888/224/3221225775/index.m3u8
安徽卫视,http://39.136.48.7:8089/PLTV/88888888/224/3221225775/index.m3u8
北京卫视,http://39.136.48.6:8089/PLTV/88888888/224/3221226146/index.m3u8
北京卫视,http://39.136.48.8:8089/PLTV/88888888/224/3221226146/index.m3u8
北京卫视,http://39.136.48.29:8089/PLTV/88888888/224/3221226146/index.m3u8
北京卫视,http://39.136.48.51:8089/PLTV/88888888/224/3221226146/index.m3u8
北京卫视,http://39.136.48.28:8089/PLTV/88888888/224/3221226146/index.m3u8
宠物,http://39.136.48.8:8089/PLTV/88888888/224/3221226071/index.m3u8
电竞,http://39.136.48.8:8089/PLTV/88888888/224/3221225629/index.m3u8
电视剧,http://39.136.48.6:8089/PLTV/88888888/224/3221225844/index.m3u8
电影,http://39.136.48.28:8089/PLTV/88888888/224/3221225844/index.m3u8
东方卫视,http://39.136.48.6:8089/PLTV/88888888/224/3221226347/index.m3u8
东南卫视,http://39.136.48.8:8089/PLTV/88888888/224/3221225964/index.m3u8
动漫,http://39.136.48.8:8089/PLTV/88888888/224/3221225943/index.m3u8
甘肃卫视,http://39.136.48.29:8089/PLTV/88888888/224/3221226387/index.m3u8
甘肃卫视,http://39.136.48.28:8089/PLTV/88888888/224/3221226387/index.m3u8
广东卫视,http://39.136.48.6:8089/PLTV/88888888/224/3221226213/index.m3u8
广东卫视,http://39.136.48.51:8089/PLTV/88888888/224/3221226213/index.m3u8
广东卫视,http://39.136.48.8:8089/PLTV/88888888/224/3221226213/index.m3u8
贵州卫视,http://39.136.48.51:8089/PLTV/88888888/224/3221225777/index.m3u8
贵州卫视,http://39.136.48.6:8089/PLTV/88888888/224/3221225777/index.m3u8
贵州卫视,http://39.136.48.7:8089/PLTV/88888888/224/3221225777/index.m3u8
海南卫视,http://39.136.48.28:8089/PLTV/88888888/224/3221226325/index.m3u8
海南卫视,http://39.136.48.29:8089/PLTV/88888888/224/3221226325/index.m3u8
海南卫视,http://39.136.48.6:8089/PLTV/88888888/224/3221225767/index.m3u8
河北卫视,http://39.136.48.6:8089/PLTV/88888888/224/3221225779/index.m3u8
河北卫视,http://39.136.48.51:8089/PLTV/88888888/224/3221225779/index.m3u8
河北卫视,http://39.136.48.52:8089/PLTV/88888888/224/3221225779/index.m3u8
河北卫视,http://39.136.48.7:8089/PLTV/88888888/224/3221225779/index.m3u8
河北卫视,http://39.136.48.8:8089/PLTV/88888888/224/3221225779/index.m3u8
黑龙江卫视,http://39.136.48.51:8089/PLTV/88888888/224/3221226148/index.m3u8
黑龙江卫视,http://39.136.48.8:8089/PLTV/88888888/224/3221226148/index.m3u8
黑龙江卫视,http://39.136.48.6:8089/PLTV/88888888/224/3221226148/index.m3u8
湖北卫视,http://39.136.48.6:8089/PLTV/88888888/224/3221225769/index.m3u8
湖北卫视,http://39.136.48.7:8089/PLTV/88888888/224/3221225769/index.m3u8
湖北卫视,http://39.136.48.8:8089/PLTV/88888888/224/3221225769/index.m3u8
湖北卫视,http://39.136.48.51:8089/PLTV/88888888/224/3221225769/index.m3u8
湖北卫视,http://39.136.48.52:8089/PLTV/88888888/224/3221225769/index.m3u8
湖南卫视,http://39.136.48.7:8089/PLTV/88888888/224/3221225767/index.m3u8
湖南卫视,http://39.136.48.51:8089/PLTV/88888888/224/3221225767/index.m3u8
吉林卫视,http://39.136.48.8:8089/PLTV/88888888/224/3221226507/index.m3u8
江苏卫视,http://39.136.48.28:8089/PLTV/88888888/224/3221226211/index.m3u8
江苏卫视,http://39.136.48.51:8089/PLTV/88888888/224/3221226211/index.m3u8
江苏卫视,http://39.136.48.29:8089/PLTV/88888888/224/3221226211/index.m3u8
江苏卫视,http://39.136.48.6:8089/PLTV/88888888/224/3221226211/index.m3u8
辽宁卫视,http://39.136.48.6:8089/PLTV/88888888/224/3221225789/index.m3u8
辽宁卫视,http://39.136.48.51:8089/PLTV/88888888/224/3221225789/index.m3u8
辽宁卫视,http://39.136.48.52:8089/PLTV/88888888/224/3221225789/index.m3u8
辽宁卫视,http://39.136.48.8:8089/PLTV/88888888/224/3221225789/index.m3u8
深圳卫视,http://39.136.48.52:8089/PLTV/88888888/224/3221226150/index.m3u8
深圳卫视,http://39.136.48.100:8089/PLTV/88888888/224/3221226150/index.m3u8
深圳卫视,http://39.136.48.51:8089/PLTV/88888888/224/3221226150/index.m3u8
深圳卫视,http://39.136.48.8:8089/PLTV/88888888/224/3221226043/index.m3u8
四川卫视,http://39.136.48.6:8089/PLTV/88888888/224/3221226327/index.m3u8
四川卫视,http://39.136.48.28:8089/PLTV/88888888/224/3221226327/index.m3u8
四川卫视,http://39.136.48.29:8089/PLTV/88888888/224/3221226327/index.m3u8
天津卫视,http://39.136.48.25:8089/PLTV/88888888/224/3221226485/index.m3u8
重庆卫视,http://39.136.48.29:8089/PLTV/88888888/224/3221226310/index.m3u8
重庆卫视,http://39.136.48.28:8089/PLTV/88888888/224/3221226310/index.m3u8
重庆卫视,http://39.136.48.8:8089/PLTV/88888888/224/3221225952/index.m3u8
山东移动,#genre#
山东公共,http://39.136.48.21:8089/PLTV/88888888/224/3221226077/index.m3u8
山东教育,http://39.136.48.51:8089/PLTV/88888888/224/3221226049/index.m3u8
山东教育,http://39.136.48.10:8089/PLTV/88888888/224/3221226049/index.m3u8
山东教育,http://39.136.48.11:8089/PLTV/88888888/224/3221226049/index.m3u8
山东教育,http://39.136.48.6:8089/PLTV/88888888/224/3221226049/index.m3u8
山东教育,http://39.136.48.18:8089/PLTV/88888888/224/3221226049/index.m3u8
山东教育,http://39.136.48.7:8089/PLTV/88888888/224/3221226049/index.m3u8
山东教育,http://39.136.48.99:8089/PLTV/88888888/224/3221226049/index.m3u8
山东教育,http://39.136.48.21:8089/PLTV/88888888/224/3221226049/index.m3u8
山东教育,http://39.136.48.52:8089/PLTV/88888888/224/3221226049/index.m3u8
山东教育,http://39.136.48.28:8089/PLTV/88888888/224/3221226049/index.m3u8
山东教育,http://39.136.48.29:8089/PLTV/88888888/224/3221226049/index.m3u8
山东农科,http://39.136.48.52:8089/PLTV/88888888/224/3221226018/index.m3u8
山东农科,http://39.136.48.18:8089/PLTV/88888888/224/3221226018/index.m3u8
山东农科,http://39.136.48.7:8089/PLTV/88888888/224/3221226018/index.m3u8
山东农科,http://39.136.48.8:8089/PLTV/88888888/224/3221226018/index.m3u8
山东农科,http://39.136.48.5:8089/PLTV/88888888/224/3221226018/index.m3u8
山东农科,http://39.136.48.99:8089/PLTV/88888888/224/3221226018/index.m3u8
山东农科,http://39.136.48.6:8089/PLTV/88888888/224/3221226018/index.m3u8
山东农科,http://39.136.48.51:8089/PLTV/88888888/224/3221226018/index.m3u8
山东农科,http://39.136.48.27:8089/PLTV/88888888/224/3221226018/index.m3u8
山东农科,http://39.136.48.21:8089/PLTV/88888888/224/3221226018/index.m3u8
山东农科,http://39.136.48.28:8089/PLTV/88888888/224/3221226018/index.m3u8
山东农科,http://39.136.48.4:8089/PLTV/88888888/224/3221226018/index.m3u8
山东农科,http://39.136.48.29:8089/PLTV/88888888/224/3221226018/index.m3u8
济南教育,http://livejnedu.chinamcache.com/live/jneduzb01.m3u8?shandd
山东齐鲁,http://39.136.48.25:8089/PLTV/88888888/224/3221226045/index.m3u8
山东齐鲁,http://39.136.48.51:8089/PLTV/88888888/224/3221226045/index.m3u8
山东齐鲁,http://39.136.48.100:8089/PLTV/88888888/224/3221226045/index.m3u8
山东齐鲁,http://39.136.48.10:8089/PLTV/88888888/224/3221226045/index.m3u8
山东齐鲁,http://39.136.48.6:8089/PLTV/88888888/224/3221226045/index.m3u8
山东齐鲁,http://39.136.48.5:8089/PLTV/88888888/224/3221226045/index.m3u8
山东齐鲁,http://39.136.48.52:8089/PLTV/88888888/224/3221226045/index.m3u8
山东齐鲁,http://39.136.48.8:8089/PLTV/88888888/224/3221225868/index.m3u8
山东齐鲁,http://39.136.48.7:8089/PLTV/88888888/224/3221226045/index.m3u8
山东齐鲁,http://39.136.48.8:8089/PLTV/88888888/224/3221226045/index.m3u8
山东齐鲁,http://39.136.48.2:8089/PLTV/88888888/224/3221226045/index.m3u8
山东齐鲁,http://39.136.48.99:8089/PLTV/88888888/224/3221226045/index.m3u8
山东齐鲁,http://39.136.48.11:8089/PLTV/88888888/224/3221226045/index.m3u8
山东少儿,http://39.136.48.19:8089/PLTV/88888888/224/3221226195/index.m3u8
山东少儿,http://39.136.48.51:8089/PLTV/88888888/224/3221226195/index.m3u8
山东少儿,http://39.136.48.56:8089/PLTV/88888888/224/3221226195/index.m3u8
山东少儿,http://39.136.48.100:8089/PLTV/88888888/224/3221226195/index.m3u8
山东少儿,http://39.136.48.25:8089/PLTV/88888888/224/3221226195/index.m3u8
山东少儿,http://39.136.48.52:8089/PLTV/88888888/224/3221226195/index.m3u8
山东少儿,http://39.136.48.102:8089/PLTV/88888888/224/3221226195/index.m3u8
山东少儿,http://39.136.48.50:8089/PLTV/88888888/224/3221226195/index.m3u8
山东少儿,http://39.136.48.21:8089/PLTV/88888888/224/3221226195/index.m3u8
山东少儿,http://39.136.48.24:8089/PLTV/88888888/224/3221226195/index.m3u8
山东少儿,http://39.136.48.28:8089/PLTV/88888888/224/3221226195/index.m3u8
山东少儿,http://39.136.48.53:8089/PLTV/88888888/224/3221226195/index.m3u8
山东少儿,http://39.136.48.10:8089/PLTV/88888888/224/3221226195/index.m3u8
山东少儿,http://39.136.48.99:8089/PLTV/88888888/224/3221226195/index.m3u8
山东少儿,http://39.136.48.3:8089/PLTV/88888888/224/3221226195/index.m3u8
山东少儿,http://39.136.48.6:8089/PLTV/88888888/224/3221226195/index.m3u8
山东少儿,http://39.136.48.8:8089/PLTV/88888888/224/3221226001/index.m3u8
山东少儿,http://39.136.48.98:8089/PLTV/88888888/224/3221226195/index.m3u8
山东少儿,http://39.136.48.58:8089/PLTV/88888888/224/3221226195/index.m3u8
山东少儿,http://39.136.48.23:8089/PLTV/88888888/224/3221226195/index.m3u8
山东少儿,http://39.136.48.9:8089/PLTV/88888888/224/3221226195/index.m3u8
山东少儿,http://39.136.48.101:8089/PLTV/88888888/224/3221226195/index.m3u8
山东少儿,http://39.136.48.59:8089/PLTV/88888888/224/3221226195/index.m3u8
山东少儿,http://39.136.48.2:8089/PLTV/88888888/224/3221226195/index.m3u8
山东少儿,http://39.136.48.57:8089/PLTV/88888888/224/3221226195/index.m3u8
山东少儿,http://39.136.48.26:8089/PLTV/88888888/224/3221226195/index.m3u8
山东少儿,http://39.136.48.55:8089/PLTV/88888888/224/3221226195/index.m3u8
山东少儿,http://39.136.48.8:8089/PLTV/88888888/224/3221226195/index.m3u8
山东少儿,http://39.136.48.11:8089/PLTV/88888888/224/3221226195/index.m3u8
山东少儿,http://39.136.48.5:8089/PLTV/88888888/224/3221226195/index.m3u8
山东少儿,http://39.136.48.20:8089/PLTV/88888888/224/3221226195/index.m3u8
山东少儿,http://39.136.48.18:8089/PLTV/88888888/224/3221226195/index.m3u8
山东少儿,http://39.136.48.29:8089/PLTV/88888888/224/3221226195/index.m3u8
山东少儿,http://39.136.48.7:8089/PLTV/88888888/224/3221226195/index.m3u8
山东少儿,http://39.136.48.27:8089/PLTV/88888888/224/3221226195/index.m3u8
山东少儿,http://39.136.48.54:8089/PLTV/88888888/224/3221226195/index.m3u8
山东少儿,http://39.136.48.22:8089/PLTV/88888888/224/3221226195/index.m3u8
山东少儿,http://39.136.48.4:8089/PLTV/88888888/224/3221226195/index.m3u8
山东少儿,http://39.136.48.103:8089/PLTV/88888888/224/3221226195/index.m3u8
山东生活,http://39.136.48.21:8089/PLTV/88888888/224/3221225841/index.m3u8
山东生活,http://39.136.48.8:8089/PLTV/88888888/224/3221225841/index.m3u8
山东生活,http://39.136.48.2:8089/PLTV/88888888/224/3221225841/index.m3u8
山东生活,http://39.136.48.99:8089/PLTV/88888888/224/3221225841/index.m3u8
山东生活,http://39.136.48.5:8089/PLTV/88888888/224/3221225841/index.m3u8
山东生活,http://39.136.48.27:8089/PLTV/88888888/224/3221225841/index.m3u8
山东生活,http://39.136.48.6:8089/PLTV/88888888/224/3221225841/index.m3u8
山东生活,http://39.136.48.52:8089/PLTV/88888888/224/3221225841/index.m3u8
山东生活,http://39.136.48.18:8089/PLTV/88888888/224/3221225841/index.m3u8
山东生活,http://39.136.48.51:8089/PLTV/88888888/224/3221225841/index.m3u8
山东生活,http://39.136.48.10:8089/PLTV/88888888/224/3221225841/index.m3u8
山东生活,http://39.136.48.7:8089/PLTV/88888888/224/3221225841/index.m3u8
山东生活,http://39.136.48.8:8089/PLTV/88888888/224/3221225841/1.m3u8
山东体育,http://39.136.48.28:8089/PLTV/88888888/224/3221226075/index.m3u8
山东体育,http://39.136.48.7:8089/PLTV/88888888/224/3221226075/index.m3u8
山东体育,http://39.136.48.51:8089/PLTV/88888888/224/3221226075/index.m3u8
山东体育,http://39.136.48.52:8089/PLTV/88888888/224/3221226075/index.m3u8
山东体育,http://39.136.48.10:8089/PLTV/88888888/224/3221226075/index.m3u8
山东体育,http://39.136.48.8:8089/PLTV/88888888/224/3221226075/index.m3u8
山东体育,http://39.136.48.25:8089/PLTV/88888888/224/3221226075/index.m3u8
山东体育,http://39.136.48.8:8089/PLTV/88888888/224/3221226003/index.m3u8
山东体育,http://39.136.48.6:8089/PLTV/88888888/224/3221226075/index.m3u8
山东体育,http://39.136.48.5:8089/PLTV/88888888/224/3221226075/index.m3u8
山东体育,http://39.136.48.99:8089/PLTV/88888888/224/3221226075/index.m3u8
山东体育,http://39.136.48.2:8089/PLTV/88888888/224/3221226075/index.m3u8
山东体育,http://39.136.48.18:8089/PLTV/88888888/224/3221226075/index.m3u8
山东体育,http://39.136.48.21:8089/PLTV/88888888/224/3221226075/index.m3u8
山东体育,http://39.136.48.29:8089/PLTV/88888888/224/3221226075/index.m3u8
山东体育k,http://home.oxtv.top:5066/udp/239.21.1.58:5002
山东体育k,http://home.oxtv.top:5066/udp/239.21.1.141:5002
山东卫视,http://39.136.48.99:8089/PLTV/88888888/224/3221226144/index.m3u8
山东卫视,http://39.136.48.5:8089/PLTV/88888888/224/3221226144/index.m3u8
山东卫视,http://39.136.48.8:8089/PLTV/88888888/224/3221225921/index.m3u8
山东卫视,http://39.136.48.2:8089/PLTV/88888888/224/3221226144/index.m3u8
山东卫视,http://39.136.48.7:8089/PLTV/88888888/224/3221226144/index.m3u8
山东卫视,http://39.136.48.51:8089/PLTV/88888888/224/3221226144/index.m3u8
山东卫视,http://39.136.48.18:8089/PLTV/88888888/224/3221226144/index.m3u8
山东卫视,http://39.136.48.6:8089/PLTV/88888888/224/3221226144/index.m3u8
山东文旅,http://39.136.48.51:8089/PLTV/88888888/224/3221225802/index.m3u8
山东文旅,http://39.136.48.52:8089/PLTV/88888888/224/3221225802/index.m3u8
山东文旅,http://39.136.48.7:8089/PLTV/88888888/224/3221225802/index.m3u8
山东文旅,http://39.136.48.8:8089/PLTV/88888888/224/3221225802/index.m3u8
山东文旅,http://39.136.48.2:8089/PLTV/88888888/224/3221225802/index.m3u8
山东文旅,http://39.136.48.5:8089/PLTV/88888888/224/3221225802/index.m3u8
山东文旅,http://39.136.48.18:8089/PLTV/88888888/224/3221225802/index.m3u8
山东文旅,http://39.136.48.99:8089/PLTV/88888888/224/3221225802/index.m3u8
山东文旅,http://39.136.48.6:8089/PLTV/88888888/224/3221225802/index.m3u8
山东新闻,http://39.136.48.51:8089/PLTV/88888888/224/3221226077/index.m3u8
山东新闻,http://39.136.48.52:8089/PLTV/88888888/224/3221226077/index.m3u8
山东新闻,http://39.136.48.18:8089/PLTV/88888888/224/3221226077/index.m3u8
山东新闻,http://39.136.48.7:8089/PLTV/88888888/224/3221226077/index.m3u8
山东新闻,http://39.136.48.5:8089/PLTV/88888888/224/3221226077/index.m3u8
山东新闻,http://39.136.48.99:8089/PLTV/88888888/224/3221226077/index.m3u8
山东新闻,http://39.136.48.2:8089/PLTV/88888888/224/3221226077/index.m3u8
山东新闻,http://39.136.48.6:8089/PLTV/88888888/224/3221226077/index.m3u8
山东综艺,http://39.136.48.18:8089/PLTV/88888888/224/3221225855/index.m3u8
山东综艺,http://39.136.48.8:8089/PLTV/88888888/224/3221225855/index.m3u8
山东综艺,http://39.136.48.21:8089/PLTV/88888888/224/3221225855/index.m3u8
山东综艺,http://39.136.48.99:8089/PLTV/88888888/224/3221225855/index.m3u8
山东综艺,http://39.136.48.5:8089/PLTV/88888888/224/3221225855/index.m3u8
山东综艺,http://39.136.48.2:8089/PLTV/88888888/224/3221225855/index.m3u8
山东综艺,http://39.136.48.6:8089/PLTV/88888888/224/3221225855/index.m3u8
山东综艺,http://39.136.48.7:8089/PLTV/88888888/224/3221225855/index.m3u8
山东综艺,http://39.136.48.51:8089/PLTV/88888888/224/3221225855/index.m3u8
山东综艺,http://39.136.48.27:8089/PLTV/88888888/224/3221225855/index.m3u8
山东综艺,http://39.136.48.52:8089/PLTV/88888888/224/3221225855/index.m3u8
央卫秒开,#genre#
CCTV-1,http://hlslive-tx-cdn.ysp.cctv.cn/ysp/2024078203.m3u8?key=txiptv&playlive=1&authid=0
CCTV-2,http://hlslive-tx-cdn.ysp.cctv.cn/ysp/2024075403.m3u8?key=txiptv&playlive=1&authid=0
CCTV-3,http://hlslive-tx-cdn.ysp.cctv.cn/ysp/2024068503.m3u8?key=txiptv&playlive=1&authid=0
CCTV-4,http://hlslive-tx-cdn.ysp.cctv.cn/ysp/2024078303.m3u8?key=txiptv&playlive=1&authid=0
CCTV-5,http://hlslive-tx-cdn.ysp.cctv.cn/ysp/2024078403.m3u8?key=txiptv&playlive=1&authid=0
CCTV5+,http://hlslive-tx-cdn.ysp.cctv.cn/ysp/2024078003.m3u8?key=txiptv&playlive=1&authid=0
CCTV-6,http://mobilelive-ds.ysp.cctv.cn/ysp/2013693901.m3u8?key=txiptv&playlive=1&authid=0
CCTV-7,http://hlslive-tx-cdn.ysp.cctv.cn/ysp/2024072003.m3u8?key=txiptv&playlive=1&authid=0
CCTV-8,http://hlslive-tx-cdn.ysp.cctv.cn/ysp/2024078503.m3u8?key=txiptv&playlive=1&authid=0
CCTV-9,http://hlslive-tx-cdn.ysp.cctv.cn/ysp/2024078603.m3u8?key=txiptv&playlive=1&authid=0
CCTV-10,http://hlslive-tx-cdn.ysp.cctv.cn/ysp/2024078703.m3u8?key=txiptv&playlive=1&authid=0
CCTV-11,http://hlslive-tx-cdn.ysp.cctv.cn/ysp/2024078803.m3u8?key=txiptv&playlive=1&authid=0
CCTV-12,http://hlslive-tx-cdn.ysp.cctv.cn/ysp/2024078903.m3u8?key=txiptv&playlive=1&authid=0
CCTV-13,http://hlslive-tx-cdn.ysp.cctv.cn/ysp/2024079003.m3u8?key=txiptv&playlive=1&authid=0
CCTV-14,http://hlslive-tx-cdn.ysp.cctv.cn/ysp/2024079103.m3u8?key=txiptv&playlive=1&authid=0
CCTV-15,http://hlslive-tx-cdn.ysp.cctv.cn/ysp/2024079203.m3u8?key=txiptv&playlive=1&authid=0
CCTV-16,http://hlslive-tx-cdn.ysp.cctv.cn/ysp/2024079303.m3u8?key=txiptv&playlive=1&authid=0
CCTV-17,http://hlslive-tx-cdn.ysp.cctv.cn/ysp/2024079503.m3u8?key=txiptv&playlive=1&authid=0
CCTV-4K,http://hlslive-tx-cdn.ysp.cctv.cn/ysp/2024081302.m3u8?key=txiptv&playlive=1&authid=0
CCTV-8K,http://hlslive-tx-cdn.ysp.cctv.cn/ysp/2020603421.m3u8?key=txiptv&playlive=1&authid=0
世界地理,http://hlslive-tx-cdn.ysp.cctv.cn/ysp/2024172003.m3u8?key=txiptv&playlive=1&authid=0
兵器科技,http://hlslive-tx-cdn.ysp.cctv.cn/ysp/2024172103.m3u8?key=txiptv&playlive=1&authid=0
第一剧场,http://hlslive-tx-cdn.ysp.cctv.cn/ysp/2024171803.m3u8?key=txiptv&playlive=1&authid=0
怀旧剧场,http://hlslive-tx-cdn.ysp.cctv.cn/ysp/2024171903.m3u8?key=txiptv&playlive=1&authid=0
风云剧场,http://hlslive-tx-cdn.ysp.cctv.cn/ysp/2024171703.m3u8?key=txiptv&playlive=1&authid=0
风云音乐,http://hlslive-tx-cdn.ysp.cctv.cn/ysp/2024163303.m3u8?key=txiptv&playlive=1&authid=0
风云足球,http://hlslive-tx-cdn.ysp.cctv.cn/ysp/2012514203.m3u8?key=txiptv&playlive=1&authid=0
高尔网球,http://hlslive-tx-cdn.ysp.cctv.cn/ysp/2024166203.m3u8?key=txiptv&playlive=1&authid=0
央视台球,http://hlslive-tx-cdn.ysp.cctv.cn/ysp/2024172403.m3u8?key=txiptv&playlive=1&authid=0
电视指南,http://hlslive-tx-cdn.ysp.cctv.cn/ysp/2024172503.m3u8?key=txiptv&playlive=1&authid=0
女性时尚,http://hlslive-tx-cdn.ysp.cctv.cn/ysp/2024172203.m3u8?key=txiptv&playlive=1&authid=0
卫生健康,http://hlslive-tx-cdn.ysp.cctv.cn/ysp/2024165201.m3u8?key=txiptv&playlive=1&authid=0
CGT英语,http://hlslive-tx-cdn.ysp.cctv.cn/ysp/2022575001.m3u8?key=txiptv&playlive=1&authid=0 
CGT纪录,http://hlslive-tx-cdn.ysp.cctv.cn/ysp/2022574703.m3u8?key=txiptv&playlive=1&authid=0 
CGT西语,http://hlslive-tx-cdn.ysp.cctv.cn/ysp/2022571703.m3u8?key=txiptv&playlive=1&authid=0 
CGT法语,http://hlslive-tx-cdn.ysp.cctv.cn/ysp/2022574903.m3u8?key=txiptv&playlive=1&authid=0 
CGT阿语,http://hlslive-tx-cdn.ysp.cctv.cn/ysp/2022574603.m3u8?key=txiptv&playlive=1&authid=0 
CGT俄语,http://hlslive-tx-cdn.ysp.cctv.cn/ysp/2022574803.m3u8?key=txiptv&playlive=1&authid=0 
中国教育,http://mobilelive-ds.ysp.cctv.cn/ysp/2022823801.m3u8?key=txiptv&playlive=1&authid=0 
北京卫视,http://hlslive-tx-cdn.ysp.cctv.cn/ysp/2024052703.m3u8?key=txiptv&playlive=1&authid=0 
东方卫视,http://hlslive-tx-cdn.ysp.cctv.cn/ysp/2024054502.m3u8?key=txiptv&playlive=1&authid=0 
江苏卫视,http://hlslive-tx-cdn.ysp.cctv.cn/ysp/2024171102.m3u8?key=txiptv&playlive=1&authid=0 
浙江卫视,http://hlslive-tx-cdn.ysp.cctv.cn/ysp/2024054702.m3u8?key=txiptv&playlive=1&authid=0 
湖南卫视,http://hlslive-tx-cdn.ysp.cctv.cn/ysp/2024054802.m3u8?key=txiptv&playlive=1&authid=0  
广东卫视,http://hlslive-tx-cdn.ysp.cctv.cn/ysp/2024060902.m3u8?key=txiptv&playlive=1&authid=0 
深圳卫视,http://hlslive-tx-cdn.ysp.cctv.cn/ysp/2024061302.m3u8?key=txiptv&playlive=1&authid=0 
天津卫视,http://hlslive-tx-cdn.ysp.cctv.cn/ysp/2019927003.m3u8?key=txiptv&playlive=1&authid=0 
重庆卫视,http://hlslive-tx-cdn.ysp.cctv.cn/ysp/2024061102.m3u8?key=txiptv&playlive=1&authid=0
辽宁卫视,http://hlslive-tx-cdn.ysp.cctv.cn/ysp/2024171302.m3u8?key=txiptv&playlive=1&authid=0 
河北卫视,http://hlslive-tx-cdn.ysp.cctv.cn/ysp/2024171502.m3u8?key=txiptv&playlive=1&authid=0 
山东卫视,http://hlslive-tx-cdn.ysp.cctv.cn/ysp/2024171602.m3u8?key=txiptv&playlive=1&authid=0 
安徽卫视,http://hlslive-tx-cdn.ysp.cctv.cn/ysp/2024171402.m3u8?key=txiptv&playlive=1&authid=0 
河南卫视,http://hlslive-tx-cdn.ysp.cctv.cn/ysp/2024059702.m3u8?key=txiptv&playlive=1&authid=0 
湖北卫视,http://hlslive-tx-cdn.ysp.cctv.cn/ysp/2024171202.m3u8?key=txiptv&playlive=1&authid=0
江西卫视,http://hlslive-tx-cdn.ysp.cctv.cn/ysp/2024061702.m3u8?key=txiptv&playlive=1&authid=0 
东南卫视,http://hlslive-tx-cdn.ysp.cctv.cn/ysp/2024061502.m3u8?key=txiptv&playlive=1&authid=0
广西卫视,http://hlslive-tx-cdn.ysp.cctv.cn/ysp/2024060702.m3u8?key=txiptv&playlive=1&authid=0 
贵州卫视,http://hlslive-tx-cdn.ysp.cctv.cn/ysp/2024061602.m3u8?key=txiptv&playlive=1&authid=0 
四川卫视,http://hlslive-tx-cdn.ysp.cctv.cn/ysp/2024061402.m3u8?key=txiptv&playlive=1&authid=0 
新疆卫视,http://hlslive-tx-cdn.ysp.cctv.cn/ysp/2019927403.m3u8?key=txiptv&playlive=1&authid=0 
海南卫视,http://hlslive-tx-cdn.ysp.cctv.cn/ysp/2024055602.m3u8?key=txiptv&playlive=1&authid=0 
兵团卫视,http://mobilelive-ds.ysp.cctv.cn/ysp/2022606701.m3u8?key=txiptv&playlive=1&authid=0 
黑龙江视,http://hlslive-tx-cdn.ysp.cctv.cn/ysp/2024061002.m3u8?key=txiptv&playlive=1&authid=0
fmm央视卫视,#genre#
CCTV-1 综合,http://[2409:8087:5e01:34::20]:6610/ZTE_CMS/00000001000000060000000000000131/index.m3u8?IAS
CCTV-1 综合,http://[2409:8087:5e01:34::22]:6610/ZTE_CMS/00000001000000060000000000000131/index.m3u8?IAS
CCTV-1 综合,http://[2409:8087:5e01:34::23]:6610/ZTE_CMS/00000001000000060000000000000131/index.m3u8?IAS
CCTV-1 综合,http://[2409:8087:5e00:24::1f]:6060/ZTE_CMS/00000001000000060000000000000131/index.m3u8
CCTV-1 综合,http://[2409:8087:5e01:34::21]:6610/ZTE_CMS/00000001000000060000000000000131/index.m3u8?IAS
CCTV-1 综合,http://[2409:8087:1a01:df::4077]:80/ottrrs.hl.chinamobile.com/PLTV/88888888/224/3221226016/index.m3u8
CCTV-1 综合,http://[2409:8087:4c0a:22:1::11]:6410/170000001115/UmaiCHAN111128BESTVSMGSMG/index.m3u8?AuthInfo=9kOOdBn7MFF%2F2bWjKgahUU6FFmRK8Hl0ytyd5e5kWGEwoDIwMxbrlyyVy9x6ZDKnldIYKOjBOUjRyoym5n7Kg0yIYstFTUfqtC14fzxhy5Y
CCTV-1 综合,http://[2409:8087:5e00:24::1e]:6060/200000001898/460000089800010011/index.m3u8
CCTV-2 财经,http://[2409:8087:1a01:df::7005]:80/ottrrs.hl.chinamobile.com/PLTV/88888888/224/3221226540/index.m3u8
CCTV-2 财经,http://[2409:8087:5e01:34::22]:6610/ZTE_CMS/00000001000000060000000000000372/index.m3u8?IAS
CCTV-2 财经,http://[2409:8087:5e00:24::1f]:6060/ZTE_CMS/00000001000000060000000000000372/index.m3u8
CCTV-2 财经,http://[2409:8087:5e01:34::23]:6610/ZTE_CMS/00000001000000060000000000000372/index.m3u8?IAS
CCTV-2 财经,http://[2409:8087:5e01:34::20]:6610/ZTE_CMS/00000001000000060000000000000372/index.m3u8?IAS
CCTV-2 财经,http://[2409:8087:5e01:34::21]:6610/ZTE_CMS/00000001000000060000000000000372/index.m3u8?IAS
CCTV-2 财经,http://[2409:8087:4c0a:22:1::11]:6410/170000001115/UmaiCHAN5000036BESTVSMGSMG/index.m3u8?AuthInfo=9kOOdBn7MFF%2F2bWjKgahUSpr1AVNI633ampcuzdN%2BfGVSARKsxkWGZw7vFUuOj2QZHeRzosIxVbl7i2QHFATHA3k5wDWG1qHkZQAleNv%2FbI
CCTV-2 财经,http://[2409:8087:5e00:24::1e]:6060/200000001898/460000089800010211/index.m3u8
CCTV-3 综艺,http://[2409:8087:1a01:df::4077]:80/PLTV/88888888/224/3221225799/index.m3u8
CCTV-3 综艺,http://[2409:8087:5e00:24::1f]:6060/ZTE_CMS/00000001000000060000000000000382/index.m3u8
CCTV-3 综艺,http://[2409:8087:1a01:df::7005]:80/ottrrs.hl.chinamobile.com/PLTV/88888888/224/3221226021/index.m3u8
CCTV-3 综艺,http://[2409:8087:1a01:df::4077]:80/ottrrs.hl.chinamobile.com/PLTV/88888888/224/3221226021/index.m3u8
CCTV-3 综艺,http://[2409:8087:4c0a:22:1::11]:6410/170000001115/UmaiCHAN638727c125355/index.m3u8?AuthInfo=9kOOdBn7MFF%2F2bWjKgahUSPTZ4CK5oLfjaEYe9dogNMUNNEYLCPUtKY62j1Wp5u04wipypKUQ1TTuR2lXvBl5YpHqBJmlA19x22TD9bUOjk
CCTV-3 综艺,http://[2409:8087:5e00:24::1e]:6060/200000001898/460000089800010212/index.m3u8
CCTV-4 中文国际,http://[2409:8087:1a01:df::7005]:80/ottrrs.hl.chinamobile.com/PLTV/88888888/224/3221226428/index.m3u8
CCTV-4 中文国际,http://[2409:8087:5e01:34::21]:6610/ZTE_CMS/00000001000000060000000000000485/index.m3u8?IAS
CCTV-4 中文国际,http://[2409:8087:5e01:34::20]:6610/ZTE_CMS/00000001000000060000000000000485/index.m3u8?IAS
CCTV-4 中文国际,http://[2409:8087:5e01:34::22]:6610/ZTE_CMS/00000001000000060000000000000485/index.m3u8?IAS
CCTV-4 中文国际,http://[2409:8087:5e01:34::23]:6610/ZTE_CMS/00000001000000060000000000000485/index.m3u8?IAS
CCTV-4 中文国际,http://[2409:8087:5e00:24::1f]:6060/ZTE_CMS/00000001000000060000000000000485/index.m3u8
CCTV-4 中文国际,http://[2409:8087:4c0a:22:1::11]:6410/170000001115/UmaiCHAN5000037BESTVSMGSMG/index.m3u8?AuthInfo=9kOOdBn7MFF%2F2bWjKgahUSpr1AVNI633ampcuzdN%2BfH0ZQXwaiVktPr6ILPKXqwOUC2ZXft7ZULN6h9qLQPFOTSlVTfophiKaMb8h1kPV74
CCTV-4 中文国际,http://[2409:8087:5e00:24::1e]:6060/200000001898/460000089800010017/index.m3u8
CCTV-5 体育,http://[2409:8087:1a01:df::4077]:80/ottrrs.hl.chinamobile.com/PLTV/88888888/224/3221226019/index.m3u8
CCTV-5 体育,http://[2409:8087:5e00:24::1f]:6060/ZTE_CMS/00000001000000060000000000000376/index.m3u8
CCTV-5 体育,http://[2409:8087:5e01:34::21]:6610/ZTE_CMS/00000001000000060000000000000461/index.m3u8?IAS
CCTV-5 体育,http://[2409:8087:5e01:34::20]:6610/ZTE_CMS/00000001000000060000000000000461/index.m3u8?IAS
CCTV-5 体育,http://[2409:8087:5e01:34::22]:6610/ZTE_CMS/00000001000000060000000000000461/index.m3u8?IAS
CCTV-5 体育,http://[2409:8087:1a01:df::7005]:80/ottrrs.hl.chinamobile.com/PLTV/88888888/224/3221226019/index.m3u8
CCTV-5 体育,http://[2409:8087:4c0a:22:1::11]:6410/170000001115/UmaiCHAN638727e617ca0/index.m3u8?AuthInfo=9kOOdBn7MFF%2F2bWjKgahUSPTZ4CK5oLfjaEYe9dogNMSXw4ajlL%2FoUYC2RZQQDco6uQSifXBocz5ID6RePfIKQ4rFWiHjq%2FeZoDmrzW%2FKlw
CCTV-5 体育,http://[2409:8087:5e00:24::1e]:6060/200000001898/460000089800010145/index.m3u8
CCTV-5+ 体育赛事,http://[2409:8087:1a01:df::4077]:80/PLTV/88888888/224/3221225507/index.m3u8
CCTV-5+ 体育赛事,http://[2409:8087:5e01:34::23]:6610/ZTE_CMS/00000001000000060000000000000132/index.m3u8?IAS
CCTV-5+ 体育赛事,http://[2409:8087:5e01:34::21]:6610/ZTE_CMS/00000001000000060000000000000132/index.m3u8?IAS
CCTV-5+ 体育赛事,http://[2409:8087:5e01:34::20]:6610/ZTE_CMS/00000001000000060000000000000132/index.m3u8?IAS
CCTV-5+ 体育赛事,http://[2409:8087:5e01:34::22]:6610/ZTE_CMS/00000001000000060000000000000132/index.m3u8?IAS
CCTV-5+ 体育赛事,http://[2409:8087:5e00:24::1f]:6060/ZTE_CMS/00000001000000060000000000000132/index.m3u8
CCTV-5+ 体育赛事,http://[2409:8087:1a01:df::7005]:80/ottrrs.hl.chinamobile.com/PLTV/88888888/224/3221225603/index.m3u8
CCTV-5+ 体育赛事,http://[2409:8087:4c0a:22:1::11]:6410/170000001115/UmaiCHAN63872908d48f9/index.m3u8?AuthInfo=9kOOdBn7MFF%2F2bWjKgahUSBx06ZL9Bo6JOM%2BSTjxZRK254G1jtietGzDaHvFNRtjXOvFnbf%2BTao33JqYlfMYYn2z3agOn9gvNMT9KmBaR9o
CCTV-5+ 体育赛事,http://[2409:8087:5e00:24::1e]:6060/200000001898/460000089800010202/index.m3u8
CCTV-6 电影,http://[2409:8087:1a01:df::4077]:80/ottrrs.hl.chinamobile.com/PLTV/88888888/224/3221226010/index.m3u8
CCTV-6 电影,http://[2409:8087:5e00:24::1f]:6060/ZTE_CMS/00000001000000060000000000000379/index.m3u8
CCTV-6 电影,http://[2409:8087:1a01:df::7005]:80/ottrrs.hl.chinamobile.com/PLTV/88888888/224/3221226010/index.m3u8
CCTV-6 电影,http://[2409:8087:5e00:24::1e]:6060/200000001898/460000089800010214/index.m3u8
CCTV-6 电影,http://[2409:8087:4c0a:22:1::11]:6410/170000001115/UmaiCHAN638728804b1f9/index.m3u8?AuthInfo=9kOOdBn7MFF%2F2bWjKgahUdDh4EPdDnvGlSBkYaxFdazJhFQmuq4XUiks9ZrIlJN%2BknLs8H%2BSxcDXy%2BTesEc8Q0KCN89MjYoj85Sol1kbKI4
CCTV-7 国防军事,http://[2409:8087:1a01:df::7005]:80/ottrrs.hl.chinamobile.com/PLTV/88888888/224/3221225733/index.m3u8
CCTV-7 国防军事,http://[2409:8087:5e01:34::21]:6610/ZTE_CMS/00000001000000060000000000000380/index.m3u8?IAS
CCTV-7 国防军事,http://[2409:8087:5e00:24::1f]:6060/ZTE_CMS/00000001000000060000000000000380/index.m3u8
CCTV-7 国防军事,http://[2409:8087:5e01:34::22]:6610/ZTE_CMS/00000001000000060000000000000380/index.m3u8?IAS
CCTV-7 国防军事,http://[2409:8087:5e01:34::20]:6610/ZTE_CMS/00000001000000060000000000000380/index.m3u8?IAS
CCTV-7 国防军事,http://[2409:8087:5e01:34::23]:6610/ZTE_CMS/00000001000000060000000000000380/index.m3u8?IAS
CCTV-7 国防军事,http://[2409:8087:1a01:df::4077]:80/ottrrs.hl.chinamobile.com/PLTV/88888888/224/3221225733/index.m3u8
CCTV-7 国防军事,http://[2409:8087:4c0a:22:1::11]:6410/170000001115/UmaiCHAN5000038BESTVSMGSMG/index.m3u8?AuthInfo=9kOOdBn7MFF%2F2bWjKgahUSpr1AVNI633ampcuzdN%2BfHYKFve4MwNzRa0jPXeHjqnBjPmzSdKDNWNHhnZSaMGCXKmdx8d%2BnYdhVK5ge22ot4
CCTV-7 国防军事,http://[2409:8087:5e00:24::1e]:6060/200000001898/460000089800010215/index.m3u8
CCTV-8 电视剧,http://[2409:8087:1a01:df::4077]:80/ottrrs.hl.chinamobile.com/PLTV/88888888/224/3221226008/index.m3u8
CCTV-8 电视剧,http://[2409:8087:5e00:24::1f]:6060/ZTE_CMS/00000001000000060000000000000371/index.m3u8
CCTV-8 电视剧,http://[2409:8087:1a01:df::7005]:80/ottrrs.hl.chinamobile.com/PLTV/88888888/224/3221226008/index.m3u8
CCTV-8 电视剧,http://[2409:8087:4c0a:22:1::11]:6410/170000001115/UmaiCHAN638728970aa82/index.m3u8?AuthInfo=9kOOdBn7MFF%2F2bWjKgahUdDh4EPdDnvGlSBkYaxFdaymid9ta2tVUW0%2FdVrFqszC1EVEkAbpip1IYxn%2Ba2aA%2BVAihIiw9D8ejUsDbfU0K68
CCTV-8 电视剧,http://[2409:8087:5e00:24::1e]:6060/200000001898/460000089800010216/index.m3u8
CCTV-9 纪录,http://[2409:8087:1a01:df::4077]:80/ottrrs.hl.chinamobile.com/PLTV/88888888/224/3221225734/index.m3u8
CCTV-9 纪录,http://[2409:8087:5e01:34::22]:6610/ZTE_CMS/00000001000000060000000000000373/index.m3u8?IAS
CCTV-9 纪录,http://[2409:8087:5e01:34::21]:6610/ZTE_CMS/00000001000000060000000000000373/index.m3u8?IAS
CCTV-9 纪录,http://[2409:8087:5e01:34::20]:6610/ZTE_CMS/00000001000000060000000000000373/index.m3u8?IAS
CCTV-9 纪录,http://[2409:8087:5e01:34::23]:6610/ZTE_CMS/00000001000000060000000000000373/index.m3u8?IAS
CCTV-9 纪录,http://[2409:8087:5e00:24::1f]:6060/ZTE_CMS/00000001000000060000000000000373/index.m3u8
CCTV-9 纪录,http://[2409:8087:1a01:df::7005]:80/ottrrs.hl.chinamobile.com/PLTV/88888888/224/3221225734/index.m3u8
CCTV-9 纪录,http://[2409:8087:4c0a:22:1::11]:6410/170000001115/UmaiCHAN5000039BESTVSMGSMG/index.m3u8?AuthInfo=9kOOdBn7MFF%2F2bWjKgahUSpr1AVNI633ampcuzdN%2BfHArfvJF2pWpm4RxcBNhZ7j9vEUeCQte%2BbQaOGNIUEEK%2B3RBE1BC9EUsM18gnb%2FyAA
CCTV-9 纪录,http://[2409:8087:5e00:24::1e]:6060/200000001898/460000089800010052/index.m3u8
CCTV-10 科教,http://[2409:8087:1a01:df::4077]:80/PLTV/88888888/224/3221225677/index.m3u8
CCTV-10 科教,http://[2409:8087:5e00:24::1f]:6060/ZTE_CMS/00000001000000060000000000000375/index.m3u8
CCTV-10 科教,http://[2409:8087:5e01:34::20]:6610/ZTE_CMS/00000001000000060000000000000375/index.m3u8?IAS
CCTV-10 科教,http://[2409:8087:5e01:34::23]:6610/ZTE_CMS/00000001000000060000000000000375/index.m3u8?IAS
CCTV-10 科教,http://[2409:8087:5e01:34::22]:6610/ZTE_CMS/00000001000000060000000000000375/index.m3u8?IAS
CCTV-10 科教,http://[2409:8087:5e01:34::21]:6610/ZTE_CMS/00000001000000060000000000000375/index.m3u8?IAS
CCTV-10 科教,http://[2409:8087:1a01:df::4077]:80/ottrrs.hl.chinamobile.com/PLTV/88888888/224/3221225730/index.m3u8
CCTV-10 科教,http://[2409:8087:1a01:df::7005]:80/ottrrs.hl.chinamobile.com/PLTV/88888888/224/3221226473/index.m3u8
CCTV-10 科教,http://[2409:8087:5e00:24::1e]:6060/200000001898/460000089800010203/index.m3u8
CCTV-10 科教,http://[2409:8087:4c0a:22:1::11]:6410/170000001115/UmaiCHAN3949784BESTVSMGSMG/index.m3u8?AuthInfo=9kOOdBn7MFF%2F2bWjKgahUXt3TPFwzzdHCkOT9AjSv5OuXozn3alq9%2BUx7ZLG1w9aOfkLjZvYj56D3xkOAtSOIoLsdw8c1%2BCwLDg1aS4esN4
CCTV-11 戏曲,http://[2409:8087:1a01:df::7005]:80/ottrrs.hl.chinamobile.com/PLTV/88888888/224/3221226565/index.m3u8
CCTV-11 戏曲,http://[2409:8087:5e01:34::20]:6610/ZTE_CMS/00000001000000060000000000000497/index.m3u8?IAS
CCTV-11 戏曲,http://[2409:8087:5e01:34::22]:6610/ZTE_CMS/00000001000000060000000000000497/index.m3u8?IAS
CCTV-11 戏曲,http://[2409:8087:5e01:34::23]:6610/ZTE_CMS/00000001000000060000000000000497/index.m3u8?IAS
CCTV-11 戏曲,http://[2409:8087:5e01:34::21]:6610/ZTE_CMS/00000001000000060000000000000497/index.m3u8?IAS
CCTV-11 戏曲,http://[2409:8087:5e00:24::1f]:6060/ZTE_CMS/00000001000000060000000000000497/index.m3u8
CCTV-11 戏曲,http://[2409:8087:4c0a:22:1::11]:6410/170000001115/UmaiCHAN6000053BESTVSMGSMG/index.m3u8?AuthInfo=9kOOdBn7MFF%2F2bWjKgahUTWDyIgRkFJBAHMhA2ayG0Qj2xHA4vdPGsjBbxSL3p%2FmAObVTfznR%2Fpc%2B76QYmLRMuL3Lj9iabhv8arW7kJe6%2F4
CCTV-11 戏曲,http://[2409:8087:5e00:24::1e]:6060/200000001898/460000089800010092/index.m3u8
CCTV-11 戏曲,http://[2409:8087:1a01:df::4077]:80/ottrrs.hl.chinamobile.com/PLTV/88888888/224/3221225597/index.m3u8
CCTV-12 社会与法,http://[2409:8087:1a01:df::4077]:80/ottrrs.hl.chinamobile.com/PLTV/88888888/224/3221225731/index.m3u8
CCTV-12 社会与法,http://[2409:8087:5e01:34::22]:6610/ZTE_CMS/00000001000000060000000000000377/index.m3u8?IAS
CCTV-12 社会与法,http://[2409:8087:5e00:24::1f]:6060/ZTE_CMS/00000001000000060000000000000377/index.m3u8
CCTV-12 社会与法,http://[2409:8087:5e01:34::21]:6610/ZTE_CMS/00000001000000060000000000000377/index.m3u8?IAS
CCTV-12 社会与法,http://[2409:8087:5e01:34::23]:6610/ZTE_CMS/00000001000000060000000000000377/index.m3u8?IAS
CCTV-12 社会与法,http://[2409:8087:5e01:34::20]:6610/ZTE_CMS/00000001000000060000000000000377/index.m3u8?IAS
CCTV-12 社会与法,http://[2409:8087:74F1:0021::0008]:80/270000001322/69900158041111100000002147/index.m3u8
CCTV-12 社会与法,http://[2409:8087:1a01:df::7005]:80/ottrrs.hl.chinamobile.com/PLTV/88888888/224/3221226568/index.m3u8
CCTV-12 社会与法,http://[2409:8087:4c0a:22:1::11]:6410/170000001115/UmaiCHAN5000040BESTVSMGSMG/index.m3u8?AuthInfo=9kOOdBn7MFF%2F2bWjKgahUd3JM2PCgDefrKOVZLNt0QMAmpLefguRLiOPXiDRWhxHg8yim2giTBA8RILsb%2B8Y5pkFUyZBE%2FkNJAbwncEegkU
CCTV-12 社会与法,http://[2409:8087:5e00:24::1e]:6060/200000001898/460000089800010205/index.m3u8
CCTV-13 新闻,http://[2409:8087:1a01:df::7005]:80/ottrrs.hl.chinamobile.com/PLTV/88888888/224/3221226537/index.m3u8
CCTV-13 新闻,http://[2409:8087:5e01:34::21]:6610/ZTE_CMS/00000001000000060000000000000516/index.m3u8?IAS
CCTV-13 新闻,http://[2409:8087:5e01:34::22]:6610/ZTE_CMS/00000001000000060000000000000516/index.m3u8?IAS
CCTV-13 新闻,http://[2409:8087:5e01:34::23]:6610/ZTE_CMS/00000001000000060000000000000516/index.m3u8?IAS
CCTV-13 新闻,http://[2409:8087:5e01:34::20]:6610/ZTE_CMS/00000001000000060000000000000516/index.m3u8?IAS
CCTV-13 新闻,http://[2409:8087:5e00:24::1f]:6060/ZTE_CMS/00000001000000060000000000000516/index.m3u8
CCTV-13 新闻,http://[2409:8087:1a01:df::7005]:80/ottrrs.hl.chinamobile.com/PLTV/88888888/224/3221226571/index.m3u8
CCTV-13 新闻,http://[2409:8087:4c0a:22:1::11]:6410/170000001115/UmaiCHAN6000054BESTVSMGSMG/index.m3u8?AuthInfo=9kOOdBn7MFF%2F2bWjKgahUTWDyIgRkFJBAHMhA2ayG0SuXozn3alq9%2BUx7ZLG1w9awc14iEUxQ5VsTsr5pEBsmF56tXUfsukRUpygmTCKvAI
CCTV-13 新闻,http://[2409:8087:5e00:24::1e]:6060/200000001898/460000089800010093/index.m3u8
CCTV-13 新闻,http://[2409:8087:1a01:df::4077]:80/ottrrs.hl.chinamobile.com/PLTV/88888888/224/3221226011/index.m3u8
CCTV-14 少儿,http://[2409:8087:1a01:df::4077]:80/ottrrs.hl.chinamobile.com/PLTV/88888888/224/3221225732/index.m3u8
CCTV-14 少儿,http://[2409:8087:5e01:34::20]:6610/ZTE_CMS/00000001000000060000000000000378/index.m3u8?IAS
CCTV-14 少儿,http://[2409:8087:5e00:24::1f]:6060/ZTE_CMS/00000001000000060000000000000378/index.m3u8
CCTV-14 少儿,http://[2409:8087:5e01:34::23]:6610/ZTE_CMS/00000001000000060000000000000378/index.m3u8?IAS
CCTV-14 少儿,http://[2409:8087:5e01:34::22]:6610/ZTE_CMS/00000001000000060000000000000378/index.m3u8?IAS
CCTV-14 少儿,http://[2409:8087:5e01:34::21]:6610/ZTE_CMS/00000001000000060000000000000378/index.m3u8?IAS
CCTV-14 少儿,http://[2409:8087:1a01:df::7005]:80/ottrrs.hl.chinamobile.com/PLTV/88888888/224/3221225732/index.m3u8
CCTV-14 少儿,http://[2409:8087:4c0a:22:1::11]:6410/170000001115/UmaiCHAN3949788BESTVSMGSMG/index.m3u8?AuthInfo=9kOOdBn7MFF%2F2bWjKgahUXt3TPFwzzdHCkOT9AjSv5PYKFve4MwNzRa0jPXeHjqnp7khdLaCMP6L4QpTf84Oz6DvCG1%2BJ81QvStkxO%2FoGm8
CCTV-14 少儿,http://[2409:8087:5e00:24::1e]:6060/200000001898/460000089800010207/index.m3u8
CCTV-15 音乐,http://[2409:8087:1a01:df::7005]:80/ottrrs.hl.chinamobile.com/PLTV/88888888/224/3221226476/index.m3u8
CCTV-15 音乐,http://[2409:8087:5e01:34::20]:6610/ZTE_CMS/00000001000000060000000000000501/index.m3u8?IAS
CCTV-15 音乐,http://[2409:8087:5e01:34::22]:6610/ZTE_CMS/00000001000000060000000000000501/index.m3u8?IAS
CCTV-15 音乐,http://[2409:8087:5e01:34::23]:6610/ZTE_CMS/00000001000000060000000000000501/index.m3u8?IAS
CCTV-15 音乐,http://[2409:8087:5e01:34::21]:6610/ZTE_CMS/00000001000000060000000000000501/index.m3u8?IAS
CCTV-15 音乐,http://[2409:8087:5e00:24::1f]:6060/ZTE_CMS/00000001000000060000000000000501/index.m3u8
CCTV-15 音乐,http://[2409:8087:4c0a:22:1::11]:6410/170000001115/UmaiCHAN6000055BESTVSMGSMG/index.m3u8?AuthInfo=9kOOdBn7MFF%2F2bWjKgahUTWDyIgRkFJBAHMhA2ayG0Tdo%2FUL80msfbhDYvoWpNl31Dy7jHvMl%2FzVUrNxhL1ek1YEGVDZ7lCg0LtKJY4Ku%2B8
CCTV-15 音乐,http://[2409:8087:5e00:24::1e]:6060/200000001898/460000089800010094/index.m3u8
CCTV-15 音乐,http://[2409:8087:1a01:df::4077]:80/ottrrs.hl.chinamobile.com/PLTV/88888888/224/3221225601/index.m3u8
CCTV-16 奥林匹克,http://[2409:8087:1a01:df::4077]:80/PLTV/88888888/224/3221225893/index.m3u8
CCTV-16 奥林匹克,http://[2409:8087:1a01:df::7005]:80/ottrrs.hl.chinamobile.com/PLTV/88888888/224/3221226100/index.m3u8
CCTV-16 奥林匹克,http://[2409:8087:1a01:df::4077]:80/ottrrs.hl.chinamobile.com/PLTV/88888888/224/3221226100/index.m3u8
CCTV-16 奥林匹克,http://[2409:8087:5e00:24::1e]:6060/200000001898/460000089800010142/index.m3u8
CCTV-17 农业农村,http://[2409:8087:1a01:df::7005]:80/ottrrs.hl.chinamobile.com/PLTV/88888888/224/3221225765/index.m3u8
CCTV-17 农业农村,http://[2409:8087:5e01:34::21]:6610/ZTE_CMS/00000001000000060000000000000494/index.m3u8?IAS
CCTV-17 农业农村,http://[2409:8087:5e01:34::23]:6610/ZTE_CMS/00000001000000060000000000000494/index.m3u8?IAS
CCTV-17 农业农村,http://[2409:8087:5e00:24::1f]:6060/ZTE_CMS/00000001000000060000000000000494/index.m3u8
CCTV-17 农业农村,http://[2409:8087:5e01:34::22]:6610/ZTE_CMS/00000001000000060000000000000494/index.m3u8?IAS
CCTV-17 农业农村,http://[2409:8087:5e01:34::20]:6610/ZTE_CMS/00000001000000060000000000000494/index.m3u8?IAS
CCTV-17 农业农村,http://[2409:8087:1a01:df::4077]:80/ottrrs.hl.chinamobile.com/PLTV/88888888/224/3221225765/index.m3u8
CCTV-17 农业农村,http://[2409:8087:4c0a:22:1::11]:6410/170000001115/UmaiCHAN638728afa13b4/index.m3u8?AuthInfo=9kOOdBn7MFF%2F2bWjKgahUdDh4EPdDnvGlSBkYaxFdaz%2FyAI9to%2FMBBt%2FivcdSfljJ1%2FqqamWUjAiBAxNssfyBlZUDSXAIMtStS86hRHFuJM
CCTV-17 农业农村,http://[2409:8087:5e00:24::1e]:6060/200000001898/460000089800010210/index.m3u8
CCTV-4K 超高清,http://27.222.3.214/liveali-tp4k.cctv.cn/live/4K10M.stream/playlist.m3u8
CCTV-8K 超高清,https://tv.cry33.com/ys4k.php?id=8k
凤凰中文,http://play-flive.ifeng.com/live/06OLEGEGM4G.m3u8
凤凰资讯,http://play-flive.ifeng.com/live/06OLEEWQKN4.m3u8
凤凰香港,http://113.64.145.91:8081/hls/38/index.m3u8
卫视频道
深圳卫视,http://[2409:8087:1a01:df::7005]:80/ottrrs.hl.chinamobile.com/PLTV/88888888/224/3221226313/index.m3u8
重庆卫视,http://[2409:8087:1a01:df::7005]:80/ottrrs.hl.chinamobile.com/PLTV/88888888/224/3221226409/index.m3u8
广东卫视,http://[2409:8087:1a01:df::7005]:80/ottrrs.hl.chinamobile.com/PLTV/88888888/224/3221226248/index.m3u8
北京卫视,http://[2409:8087:1a01:df::7005]:80/ottrrs.hl.chinamobile.com/PLTV/88888888/224/3221226450/index.m3u8
湖南卫视,http://[2409:8087:1a01:df::7005]:80/ottrrs.hl.chinamobile.com/PLTV/88888888/224/3221226307/index.m3u8
东方卫视,http://[2409:8087:1a01:df::7005]:80/ottrrs.hl.chinamobile.com/PLTV/88888888/224/3221226345/index.m3u8
四川卫视,http://[2409:8087:1a01:df::7005]:80/ottrrs.hl.chinamobile.com/PLTV/88888888/224/3221226338/index.m3u8
天津卫视,http://[2409:8087:1a01:df::7005]:80/ottrrs.hl.chinamobile.com/PLTV/88888888/224/3221226459/index.m3u8
安徽卫视,http://[2409:8087:1a01:df::7005]:80/ottrrs.hl.chinamobile.com/PLTV/88888888/224/3221226391/index.m3u8
山东卫视,http://[2409:8087:1a01:df::7005]:80/ottrrs.hl.chinamobile.com/PLTV/88888888/224/3221226456/index.m3u8
广西卫视,http://[2409:8087:1a01:df::7005]:80/ottrrs.hl.chinamobile.com/PLTV/88888888/224/3221226549/index.m3u8
江苏卫视,http://[2409:8087:1a01:df::7005]:80/ottrrs.hl.chinamobile.com/PLTV/88888888/224/3221226310/index.m3u8
江西卫视,http://[2409:8087:1a01:df::7005]:80/ottrrs.hl.chinamobile.com/PLTV/88888888/224/3221226344/index.m3u8
河北卫视,http://[2409:8087:1a01:df::7005]:80/ottrrs.hl.chinamobile.com/PLTV/88888888/224/3221226406/index.m3u8
河南卫视,http://[2409:8087:1a01:df::7005]:80/ottrrs.hl.chinamobile.com/PLTV/88888888/224/3221226480/index.m3u8
浙江卫视,http://[2409:8087:1a01:df::7005]:80/ottrrs.hl.chinamobile.com/PLTV/88888888/224/3221226339/index.m3u8
海南卫视,http://[2409:8087:1a01:df::7005]:80/ottrrs.hl.chinamobile.com/PLTV/88888888/224/3221226465/index.m3u8
湖北卫视,http://[2409:8087:1a01:df::7005]:80/ottrrs.hl.chinamobile.com/PLTV/88888888/224/3221226477/index.m3u8
山西卫视,http://[2409:8087:5e01:34::21]:6610/ZTE_CMS/00000001000000060000000000000318/index.m3u8?IAS
东南卫视,http://[2409:8087:1a01:df::7005]:80/ottrrs.hl.chinamobile.com/PLTV/88888888/224/3221226341/index.m3u8
贵州卫视,http://[2409:8087:1a01:df::7005]:80/ottrrs.hl.chinamobile.com/PLTV/88888888/224/3221226474/index.m3u8
辽宁卫视,http://[2409:8087:1a01:df::7005]:80/ottrrs.hl.chinamobile.com/PLTV/88888888/224/3221226546/index.m3u8
黑龙江卫视,http://[2409:8087:1a01:df::7005]:80/ottrrs.hl.chinamobile.com/PLTV/88888888/224/3221226327/index.m3u8
内蒙古卫视,http://[2409:8087:5e01:34::20]:6610/ZTE_CMS/00000001000000060000000000000319/index.m3u8?IAS
宁夏卫视,http://[2409:8087:5e01:34::20]:6610/ZTE_CMS/00000001000000060000000000000309/index.m3u8?IAS
陕西卫视,http://[2409:8087:5e01:34::22]:6610/ZTE_CMS/00000001000000060000000000000313/index.m3u8?IAS
甘肃卫视,http://[2409:8087:1a0b:df::4005]:80/ottrrs.hl.chinamobile.com/PLTV/88888888/224/3221225633/index.m3u8
吉林卫视,http://[2409:8087:1a01:df::7005]:80/ottrrs.hl.chinamobile.com/PLTV/88888888/224/3221226397/index.m3u8
云南卫视,http://[2409:8087:5e01:34::22]:6610/ZTE_CMS/00000001000000060000000000000305/index.m3u8?IAS
三沙卫视,http://[2409:8087:5e01:34::21]:6610/ZTE_CMS/08984400000000060000000000000319/index.m3u8?IAS
青海卫视,http://[2409:8087:1a0b:df::4002]:80/ottrrs.hl.chinamobile.com/PLTV/88888888/224/3221225628/index.m3u8
新疆卫视,http://[2409:8087:1a0b:df::4005]:80/ottrrs.hl.chinamobile.com/PLTV/88888888/224/3221225635/index.m3u8
西藏卫视,http://[2409:8087:5e01:34::23]:6610/ZTE_CMS/00000001000000060000000000000317/index.m3u8?IAS
兵团卫视,http://[2409:8087:1a0b:df::4020]:80/ottrrs.hl.chinamobile.com/PLTV/88888888/224/3221226439/index.m3u8
延边卫视,http://[2409:8087:1a0b:df::4020]:80/ottrrs.hl.chinamobile.com/PLTV/88888888/224/3221226516/index.m3u8
大湾区卫视,http://[2409:8087:1a0b:df::4020]:80/ottrrs.hl.chinamobile.com/PLTV/88888888/224/3221226442/index.m3u8
安多卫视,http://[2409:8087:1a0b:df::4007]:80/ottrrs.hl.chinamobile.com/PLTV/88888888/224/3221225659/index.m3u8
厦门卫视,http://[2409:8087:5e01:34::22]:6610/ZTE_CMS/00000001000000060000000000000193/index.m3u8?IAS
康巴卫视,http://[2409:8087:1a0b:df::4005]:80/ottrrs.hl.chinamobile.com/PLTV/88888888/224/3221225660/index.m3u8
CETV-1,http://[2409:8087:1a0b:df::4020]:80/ottrrs.hl.chinamobile.com/PLTV/88888888/224/3221225652/index.m3u8
CETV-2,http://[2409:8087:1a0b:df::4013]:80/ottrrs.hl.chinamobile.com/PLTV/88888888/224/3221226425/index.m3u8
CETV-3,http://[2409:8087:7004:20:1000::22]:6610/yinhe/2/ch00000090990000001309/index.m3u8?virtualDomain=yinhe.live_hls.zte.com
CETV-4,http://[2409:8087:1a0b:df::4020]:80/ottrrs.hl.chinamobile.com/PLTV/88888888/224/3221225783/index.m3u8
CGTN英语,http://live.cgtn.com/1000/prog_index.m3u8
CGTN记录,http://[2409:8087:5e01:34::20]:6610/ZTE_CMS/00000001000000060000000000000528/index.m3u8?IAS
数字频道
爱上4K,http://[2409:8087:5e01:34::23]:6610/ZTE_CMS/00000001000000060000000000000459/index.m3u8?IAS
纪实人文,http://[2409:8087:1a01:df::7005]:80/ottrrs.hl.chinamobile.com/PLTV/88888888/224/3221225738/index.m3u8
纪实科教,http://[2409:8087:1a01:df::7005]:80/ottrrs.hl.chinamobile.com/PLTV/88888888/224/3221225729/index.m3u8
卡酷少儿,http://[2409:8087:1a0b:df::4020]:80/ottrrs.hl.chinamobile.com/PLTV/88888888/224/3221225654/index.m3u8
金鹰卡通,http://[2409:8087:1a0b:df::4008]:80/ottrrs.hl.chinamobile.com/PLTV/88888888/224/3221225653/index.m3u8
哒啵赛事,http://[2409:8087:1a01:df::7005]:80/ottrrs.hl.chinamobile.com/PLTV/88888888/224/3221225675/index.m3u8
优漫卡通,http://[2409:8087:1a0b:df::4005]:80/ottrrs.hl.chinamobile.com/PLTV/88888888/224/3221225656/index.m3u8
哈哈炫动,http://[2409:8087:1a0b:df::4001]:80/ottrrs.hl.chinamobile.com/PLTV/88888888/224/3221225657/index.m3u8
黑莓动画,http://[2409:8087:1a0b:df::4006]:80/ottrrs.hl.chinamobile.com/PLTV/88888888/224/3221225662/index.m3u8
黑莓电影,http://[2409:8087:1a0b:df::4014]:80/ottrrs.hl.chinamobile.com/PLTV/88888888/224/3221225743/index.m3u8
超级体育,http://[2409:8087:1a01:df::7005]:80/ottrrs.hl.chinamobile.com/PLTV/88888888/224/3221225715/index.m3u8
超级电影,http://[2409:8087:1a01:df::7005]:80/ottrrs.hl.chinamobile.com/PLTV/88888888/224/3221225717/index.m3u8
超级视剧,http://[2409:8087:1a01:df::7005]:80/ottrrs.hl.chinamobile.com/PLTV/88888888/224/3221225716/index.m3u8
东北热剧,http://[2409:8087:1a01:df::7005]:80/ottrrs.hl.chinamobile.com/PLTV/88888888/224/3221225741/index.m3u8
海外剧场,http://[2409:8087:1a0b:df::4005]:80/ottrrs.hl.chinamobile.com/PLTV/88888888/224/3221225671/index.m3u8
中国功夫,http://[2409:8087:1a0b:df::4001]:80/ottrrs.hl.chinamobile.com/PLTV/88888888/224/3221225681/index.m3u8
军旅剧场,http://[2409:8087:1a0b:df::4018]:80/ottrrs.hl.chinamobile.com/PLTV/88888888/224/3221225676/index.m3u8
惊悚悬疑,http://[2409:8087:1a0b:df::4002]:80/ottrrs.hl.chinamobile.com/PLTV/88888888/224/3221225665/index.m3u8
潮妈辣婆,http://[2409:8087:1a0b:df::4007]:80/ottrrs.hl.chinamobile.com/PLTV/88888888/224/3221225685/index.m3u8
精品体育,http://[2409:8087:1a0b:df::4004]:80/ottrrs.hl.chinamobile.com/PLTV/88888888/224/3221225674/index.m3u8
精品纪录,http://[2409:8087:1a0b:df::4007]:80/ottrrs.hl.chinamobile.com/PLTV/88888888/224/3221225672/index.m3u8
家庭剧场,http://[2409:8087:1a0b:df::4007]:80/ottrrs.hl.chinamobile.com/PLTV/88888888/224/3221225677/index.m3u8
精品大剧,http://[2409:8087:1a0b:df::4001]:80/ottrrs.hl.chinamobile.com/PLTV/88888888/224/3221225670/index.m3u8
军事评论,http://[2409:8087:1a0b:df::4005]:80/ottrrs.hl.chinamobile.com/PLTV/88888888/224/3221225668/index.m3u8
明星大片,http://[2409:8087:1a0b:df::4005]:80/ottrrs.hl.chinamobile.com/PLTV/88888888/224/3221225664/index.m3u8
欢乐剧场,http://[2409:8087:1a01:df::7005]:80/ottrrs.hl.chinamobile.com/PLTV/88888888/224/3221225742/index.m3u8
精品萌宠,http://[2409:8087:1a01:df::7005]:80/ottrrs.hl.chinamobile.com/PLTV/88888888/224/3221226505/index.m3u8
超级综艺,http://[2409:8087:1a01:df::7005]:80/ottrrs.hl.chinamobile.com/PLTV/88888888/224/3221225714/index.m3u8
金牌综艺,http://[2409:8087:1a01:df::7005]:80/ottrrs.hl.chinamobile.com/PLTV/88888888/224/3221225666/index.m3u8
电影频道
CHC动作电影,http://[2409:8087:4c0a:22:1::11]:6410/170000001115/UmaiCHAN6380763222d00/index.m3u8?AuthInfo=9kOOdBn7MFF%2F2bWjKgahUTrwI%2B%2BngB0lPRofcD8hTNSXQZMUEnZPBI3Y%2BI8ABE4PJC%2B6OvlZZw5ubC%2FbrIdxFJJY1CcAGU%2BYDDQV9oJ%2FVqQ
CHC家庭影院,http://[2409:8087:4c0a:22:1::11]:6410/170000001115/UmaiCHAN63807601b19dd/index.m3u8?AuthInfo=9kOOdBn7MFF%2F2bWjKgahUTrwI%2B%2BngB0lPRofcD8hTNRxu2SqX2RKsLT0S7AyQ8XopIVrD6IJGxdajeuKy4iZqZ4tkZuiEpwSRPszF6PIvg4
CHC高清电影,http://[2409:8087:4c0a:22:1::11]:6410/170000001115/UmaiCHAN6380764b172c9/index.m3u8?AuthInfo=9kOOdBn7MFF%2F2bWjKgahUTrwI%2B%2BngB0lPRofcD8hTNS8qWmEGeaUedzcFVVumqf9cm8lJoOcrIZueLbqOJTuoPV%2FwBk6CoHYGFV14SkLW04
NewTV超级电影,http://[2409:8087:1a01:df::7005]:80/ottrrs.hl.chinamobile.com/PLTV/88888888/224/3221225717/index.m3u8
NewTV黑莓电影,http://[2409:8087:1a0b:df::4014]:80/ottrrs.hl.chinamobile.com/PLTV/88888888/224/3221225743/index.m3u8
NewTV动作电影,http://[2409:8087:1a01:df::7005]:80/ottrrs.hl.chinamobile.com/PLTV/88888888/224/3221225661/index.m3u8
黑龙江影视,http://[2409:8087:1a01:df::7005]:80/ottrrs.hl.chinamobile.com/PLTV/88888888/224/3221226298/index.m3u8
湖北影视,http://[2409:8087:4c0a:22:1::11]:6410/170000001115/UmaiCHAN6380728abccd2/index.m3u8?AuthInfo=9kOOdBn7MFF%2F2bWjKgahUUAdKgLqNB5aOAUhcp5CeNKU1xiiKGJYFBZK9RpEkaggogtHJZW6nJQqLppbEYE%2BqJ9kJW%2FMvKldfS2dCii9VSI
山东,#genre#
山东新闻,http://39.136.48.21:8089/PLTV/88888888/224/3221226077/index.m3u8
山东教育卫视,http://39.136.48.51:8089/PLTV/88888888/224/3221226049/index.m3u8
山东教育卫视,http://39.136.48.10:8089/PLTV/88888888/224/3221226049/index.m3u8
山东教育卫视,http://39.136.48.11:8089/PLTV/88888888/224/3221226049/index.m3u8
山东教育卫视,http://39.136.48.6:8089/PLTV/88888888/224/3221226049/index.m3u8
山东教育卫视,http://39.136.48.18:8089/PLTV/88888888/224/3221226049/index.m3u8
山东教育卫视,http://39.136.48.7:8089/PLTV/88888888/224/3221226049/index.m3u8
山东教育卫视,http://39.136.48.99:8089/PLTV/88888888/224/3221226049/index.m3u8
山东教育卫视,http://39.136.48.21:8089/PLTV/88888888/224/3221226049/index.m3u8
山东教育卫视,http://39.136.48.52:8089/PLTV/88888888/224/3221226049/index.m3u8
山东教育卫视,http://39.136.48.28:8089/PLTV/88888888/224/3221226049/index.m3u8
山东教育卫视,http://39.136.48.29:8089/PLTV/88888888/224/3221226049/index.m3u8
山东农科,http://39.136.48.52:8089/PLTV/88888888/224/3221226018/index.m3u8
山东农科,http://39.136.48.18:8089/PLTV/88888888/224/3221226018/index.m3u8
山东农科,http://39.136.48.7:8089/PLTV/88888888/224/3221226018/index.m3u8
山东农科,http://39.136.48.8:8089/PLTV/88888888/224/3221226018/index.m3u8
山东农科,http://39.136.48.5:8089/PLTV/88888888/224/3221226018/index.m3u8
山东农科,http://39.136.48.99:8089/PLTV/88888888/224/3221226018/index.m3u8
山东农科,http://39.136.48.6:8089/PLTV/88888888/224/3221226018/index.m3u8
山东农科,http://39.136.48.51:8089/PLTV/88888888/224/3221226018/index.m3u8
山东农科,http://39.136.48.27:8089/PLTV/88888888/224/3221226018/index.m3u8
山东农科,http://39.136.48.21:8089/PLTV/88888888/224/3221226018/index.m3u8
山东农科,http://39.136.48.28:8089/PLTV/88888888/224/3221226018/index.m3u8
山东农科,http://39.136.48.4:8089/PLTV/88888888/224/3221226018/index.m3u8
山东农科,http://39.136.48.29:8089/PLTV/88888888/224/3221226018/index.m3u8
山东齐鲁,http://39.136.48.25:8089/PLTV/88888888/224/3221226045/index.m3u8
山东齐鲁,http://39.136.48.51:8089/PLTV/88888888/224/3221226045/index.m3u8
山东齐鲁,http://39.136.48.100:8089/PLTV/88888888/224/3221226045/index.m3u8
山东齐鲁,http://39.136.48.10:8089/PLTV/88888888/224/3221226045/index.m3u8
山东齐鲁,http://39.136.48.6:8089/PLTV/88888888/224/3221226045/index.m3u8
山东齐鲁,http://39.136.48.5:8089/PLTV/88888888/224/3221226045/index.m3u8
山东齐鲁,http://39.136.48.52:8089/PLTV/88888888/224/3221226045/index.m3u8
山东齐鲁,http://39.136.48.8:8089/PLTV/88888888/224/3221225868/index.m3u8
山东齐鲁,http://39.136.48.7:8089/PLTV/88888888/224/3221226045/index.m3u8
山东齐鲁,http://39.136.48.8:8089/PLTV/88888888/224/3221226045/index.m3u8
山东齐鲁,http://39.136.48.2:8089/PLTV/88888888/224/3221226045/index.m3u8
山东齐鲁,http://39.136.48.99:8089/PLTV/88888888/224/3221226045/index.m3u8
山东齐鲁,http://39.136.48.11:8089/PLTV/88888888/224/3221226045/index.m3u8
山东少儿,http://39.136.48.19:8089/PLTV/88888888/224/3221226195/index.m3u8
山东少儿,http://39.136.48.51:8089/PLTV/88888888/224/3221226195/index.m3u8
山东少儿,http://39.136.48.56:8089/PLTV/88888888/224/3221226195/index.m3u8
山东少儿,http://39.136.48.100:8089/PLTV/88888888/224/3221226195/index.m3u8
山东少儿,http://39.136.48.25:8089/PLTV/88888888/224/3221226195/index.m3u8
山东少儿,http://39.136.48.52:8089/PLTV/88888888/224/3221226195/index.m3u8
山东少儿,http://39.136.48.102:8089/PLTV/88888888/224/3221226195/index.m3u8
山东少儿,http://39.136.48.50:8089/PLTV/88888888/224/3221226195/index.m3u8
山东少儿,http://39.136.48.21:8089/PLTV/88888888/224/3221226195/index.m3u8
山东少儿,http://39.136.48.24:8089/PLTV/88888888/224/3221226195/index.m3u8
山东少儿,http://39.136.48.28:8089/PLTV/88888888/224/3221226195/index.m3u8
山东少儿,http://39.136.48.53:8089/PLTV/88888888/224/3221226195/index.m3u8
山东少儿,http://39.136.48.10:8089/PLTV/88888888/224/3221226195/index.m3u8
山东少儿,http://39.136.48.99:8089/PLTV/88888888/224/3221226195/index.m3u8
山东少儿,http://39.136.48.3:8089/PLTV/88888888/224/3221226195/index.m3u8
山东少儿,http://39.136.48.6:8089/PLTV/88888888/224/3221226195/index.m3u8
山东少儿,http://39.136.48.8:8089/PLTV/88888888/224/3221226001/index.m3u8
山东少儿,http://39.136.48.98:8089/PLTV/88888888/224/3221226195/index.m3u8
山东少儿,http://39.136.48.58:8089/PLTV/88888888/224/3221226195/index.m3u8
山东少儿,http://39.136.48.23:8089/PLTV/88888888/224/3221226195/index.m3u8
山东少儿,http://39.136.48.9:8089/PLTV/88888888/224/3221226195/index.m3u8
山东少儿,http://39.136.48.101:8089/PLTV/88888888/224/3221226195/index.m3u8
山东少儿,http://39.136.48.59:8089/PLTV/88888888/224/3221226195/index.m3u8
山东少儿,http://39.136.48.2:8089/PLTV/88888888/224/3221226195/index.m3u8
山东少儿,http://39.136.48.57:8089/PLTV/88888888/224/3221226195/index.m3u8
山东少儿,http://39.136.48.26:8089/PLTV/88888888/224/3221226195/index.m3u8
山东少儿,http://39.136.48.55:8089/PLTV/88888888/224/3221226195/index.m3u8
山东少儿,http://39.136.48.8:8089/PLTV/88888888/224/3221226195/index.m3u8
山东少儿,http://39.136.48.11:8089/PLTV/88888888/224/3221226195/index.m3u8
山东少儿,http://39.136.48.5:8089/PLTV/88888888/224/3221226195/index.m3u8
山东少儿,http://39.136.48.20:8089/PLTV/88888888/224/3221226195/index.m3u8
山东少儿,http://39.136.48.18:8089/PLTV/88888888/224/3221226195/index.m3u8
山东少儿,http://39.136.48.29:8089/PLTV/88888888/224/3221226195/index.m3u8
山东少儿,http://39.136.48.7:8089/PLTV/88888888/224/3221226195/index.m3u8
山东少儿,http://39.136.48.27:8089/PLTV/88888888/224/3221226195/index.m3u8
山东少儿,http://39.136.48.54:8089/PLTV/88888888/224/3221226195/index.m3u8
山东少儿,http://39.136.48.22:8089/PLTV/88888888/224/3221226195/index.m3u8
山东少儿,http://39.136.48.4:8089/PLTV/88888888/224/3221226195/index.m3u8
山东少儿,http://39.136.48.103:8089/PLTV/88888888/224/3221226195/index.m3u8
山东生活,http://39.136.48.21:8089/PLTV/88888888/224/3221225841/index.m3u8
山东生活,http://39.136.48.8:8089/PLTV/88888888/224/3221225841/index.m3u8
山东生活,http://39.136.48.2:8089/PLTV/88888888/224/3221225841/index.m3u8
山东生活,http://39.136.48.99:8089/PLTV/88888888/224/3221225841/index.m3u8
山东生活,http://39.136.48.5:8089/PLTV/88888888/224/3221225841/index.m3u8
山东生活,http://39.136.48.27:8089/PLTV/88888888/224/3221225841/index.m3u8
山东生活,http://39.136.48.6:8089/PLTV/88888888/224/3221225841/index.m3u8
山东生活,http://39.136.48.52:8089/PLTV/88888888/224/3221225841/index.m3u8
山东生活,http://39.136.48.18:8089/PLTV/88888888/224/3221225841/index.m3u8
山东生活,http://39.136.48.51:8089/PLTV/88888888/224/3221225841/index.m3u8
山东生活,http://39.136.48.10:8089/PLTV/88888888/224/3221225841/index.m3u8
山东生活,http://39.136.48.7:8089/PLTV/88888888/224/3221225841/index.m3u8
山东生活,http://39.136.48.8:8089/PLTV/88888888/224/3221225841/1.m3u8
山东体育,http://39.136.48.28:8089/PLTV/88888888/224/3221226075/index.m3u8
山东体育,http://39.136.48.7:8089/PLTV/88888888/224/3221226075/index.m3u8
山东体育,http://39.136.48.51:8089/PLTV/88888888/224/3221226075/index.m3u8
山东体育,http://39.136.48.52:8089/PLTV/88888888/224/3221226075/index.m3u8
山东体育,http://39.136.48.10:8089/PLTV/88888888/224/3221226075/index.m3u8
山东体育,http://39.136.48.8:8089/PLTV/88888888/224/3221226075/index.m3u8
山东体育,http://39.136.48.25:8089/PLTV/88888888/224/3221226075/index.m3u8
山东体育,http://39.136.48.8:8089/PLTV/88888888/224/3221226003/index.m3u8
山东体育,http://39.136.48.6:8089/PLTV/88888888/224/3221226075/index.m3u8
山东体育,http://39.136.48.5:8089/PLTV/88888888/224/3221226075/index.m3u8
山东体育,http://39.136.48.99:8089/PLTV/88888888/224/3221226075/index.m3u8
山东体育,http://39.136.48.2:8089/PLTV/88888888/224/3221226075/index.m3u8
山东体育,http://39.136.48.18:8089/PLTV/88888888/224/3221226075/index.m3u8
山东体育,http://39.136.48.21:8089/PLTV/88888888/224/3221226075/index.m3u8
山东体育,http://39.136.48.29:8089/PLTV/88888888/224/3221226075/index.m3u8
山东卫视,http://39.136.48.99:8089/PLTV/88888888/224/3221226144/index.m3u8
山东卫视,http://39.136.48.5:8089/PLTV/88888888/224/3221226144/index.m3u8
山东卫视,http://39.136.48.8:8089/PLTV/88888888/224/3221225921/index.m3u8
山东卫视,http://39.136.48.2:8089/PLTV/88888888/224/3221226144/index.m3u8
山东卫视,http://39.136.48.7:8089/PLTV/88888888/224/3221226144/index.m3u8
山东卫视,http://39.136.48.51:8089/PLTV/88888888/224/3221226144/index.m3u8
山东卫视,http://39.136.48.18:8089/PLTV/88888888/224/3221226144/index.m3u8
山东卫视,http://39.136.48.6:8089/PLTV/88888888/224/3221226144/index.m3u8
山东文旅,http://39.136.48.51:8089/PLTV/88888888/224/3221225802/index.m3u8
山东文旅,http://39.136.48.52:8089/PLTV/88888888/224/3221225802/index.m3u8
山东文旅,http://39.136.48.7:8089/PLTV/88888888/224/3221225802/index.m3u8
山东文旅,http://39.136.48.8:8089/PLTV/88888888/224/3221225802/index.m3u8
山东文旅,http://39.136.48.2:8089/PLTV/88888888/224/3221225802/index.m3u8
山东文旅,http://39.136.48.5:8089/PLTV/88888888/224/3221225802/index.m3u8
山东文旅,http://39.136.48.18:8089/PLTV/88888888/224/3221225802/index.m3u8
山东文旅,http://39.136.48.99:8089/PLTV/88888888/224/3221225802/index.m3u8
山东文旅,http://39.136.48.6:8089/PLTV/88888888/224/3221225802/index.m3u8
山东新闻,http://39.136.48.51:8089/PLTV/88888888/224/3221226077/index.m3u8
山东新闻,http://39.136.48.52:8089/PLTV/88888888/224/3221226077/index.m3u8
山东新闻,http://39.136.48.18:8089/PLTV/88888888/224/3221226077/index.m3u8
山东新闻,http://39.136.48.7:8089/PLTV/88888888/224/3221226077/index.m3u8
山东新闻,http://39.136.48.5:8089/PLTV/88888888/224/3221226077/index.m3u8
山东新闻,http://39.136.48.99:8089/PLTV/88888888/224/3221226077/index.m3u8
山东新闻,http://39.136.48.2:8089/PLTV/88888888/224/3221226077/index.m3u8
山东新闻,http://39.136.48.6:8089/PLTV/88888888/224/3221226077/index.m3u8
山东综艺,http://39.136.48.18:8089/PLTV/88888888/224/3221225855/index.m3u8
山东综艺,http://39.136.48.8:8089/PLTV/88888888/224/3221225855/index.m3u8
山东综艺,http://39.136.48.21:8089/PLTV/88888888/224/3221225855/index.m3u8
山东综艺,http://39.136.48.99:8089/PLTV/88888888/224/3221225855/index.m3u8
山东综艺,http://39.136.48.5:8089/PLTV/88888888/224/3221225855/index.m3u8
山东综艺,http://39.136.48.2:8089/PLTV/88888888/224/3221225855/index.m3u8
山东综艺,http://39.136.48.6:8089/PLTV/88888888/224/3221225855/index.m3u8
山东综艺,http://39.136.48.7:8089/PLTV/88888888/224/3221225855/index.m3u8
山东综艺,http://39.136.48.51:8089/PLTV/88888888/224/3221225855/index.m3u8
山东综艺,http://39.136.48.27:8089/PLTV/88888888/224/3221225855/index.m3u8
山东综艺,http://39.136.48.52:8089/PLTV/88888888/224/3221225855/index.m3u8
山东综艺,http://39.136.48.28:8089/PLTV/88888888/224/3221225855/index.m3u8
山东教育卫视,http://120.221.5.101:8089/PLTV/88888888/224/3221226049/index.m3u8
山东卫视,http://39.134.144.6:8089/PLTV/88888888/224/3221226144/index.m3u8
山东教育卫视,http://39.134.144.6:8089/PLTV/88888888/224/3221226049/index.m3u8
山东齐鲁,http://39.134.144.6:8089/PLTV/88888888/224/3221226045/index.m3u8
山东新闻,http://39.134.144.6:8089/PLTV/88888888/224/3221226077/index.m3u8
山东体育,http://39.134.144.6:8089/PLTV/88888888/224/3221226075/index.m3u8
山东综艺,http://39.134.144.6:8089/PLTV/88888888/224/3221225855/index.m3u8
山东生活,http://39.134.144.6:8089/PLTV/88888888/224/3221225841/index.m3u8
山东文旅,http://39.134.144.6:8089/PLTV/88888888/224/3221225802/index.m3u8
山东农科,http://39.134.144.6:8089/PLTV/88888888/224/3221226018/index.m3u8
山东少儿,http://39.134.144.6:8089/PLTV/88888888/224/3221226195/index.m3u8
山东卫视,http://home.oxtv.top:5066/udp/239.21.1.52:5002
山东卫视,http://home.oxtv.top:5066/udp/239.21.1.87:5002
山东国际,http://home.oxtv.top:5066/udp/239.21.1.61:5002$已停播
山东教育,http://home.oxtv.top:5066/udp/239.21.1.101:5002
山东教育,http://home.oxtv.top:5066/udp/239.21.1.169:5002
山东居家购物,http://home.oxtv.top:5066/udp/239.21.1.112:5002
山东农科,http://home.oxtv.top:5066/udp/239.21.1.59:5002
山东农科,http://home.oxtv.top:5066/udp/239.21.1.183:5002
山东齐鲁,http://home.oxtv.top:5066/udp/239.21.1.53:5002
山东齐鲁,http://home.oxtv.top:5066/udp/239.21.1.134:5002
山东少儿,http://home.oxtv.top:5066/udp/239.21.1.60:5002
山东少儿,http://home.oxtv.top:5066/udp/239.21.1.208:5002
山东生活,http://home.oxtv.top:5066/udp/239.21.1.56:5002
山东生活,http://home.oxtv.top:5066/udp/239.21.1.175:5002
山东体育,http://home.oxtv.top:5066/udp/239.21.1.58:5002
山东体育,http://home.oxtv.top:5066/udp/239.21.1.141:5002
山东文旅,http://home.oxtv.top:5066/udp/239.21.1.57:5002
山东文旅,http://home.oxtv.top:5066/udp/239.21.1.176:5002
山东新闻,http://home.oxtv.top:5066/udp/239.21.1.54:5002
山东新闻,http://home.oxtv.top:5066/udp/239.21.1.140:5002
山东综艺,http://home.oxtv.top:5066/udp/239.21.1.55:5002
山东综艺,http://home.oxtv.top:5066/udp/239.21.1.177:5002
青州综合,http://sdqz.chinashadt.com:2036/live/stream:1.stream/playlist.m3u8
青州文旅,http://sdqz.chinashadt.com:2036/live/stream:3.stream/playlist.m3u8
寿光新闻,http://bfrmt.univalsoft.com/rmttv/live.m3u8
寿光蔬菜,http://bfrmt.univalsoft.com/rmttv/velive.m3u8
济南新闻,http://39.134.144.6:8089/PLTV/88888888/224/3221226215/index.m3u8
济南都市,http://39.134.144.6:8089/PLTV/88888888/224/3221226029/index.m3u8
济南生活,http://39.134.144.6:8089/PLTV/88888888/224/3221225906/index.m3u8
济南影视,http://39.134.144.6:8089/PLTV/88888888/224/3221226067/index.m3u8
济南娱乐,http://39.134.144.6:8089/PLTV/88888888/224/3221225992/index.m3u8
济南商务,http://39.134.144.6:8089/PLTV/88888888/224/3221225862/index.m3u8
济南少儿,http://39.134.144.6:8089/PLTV/88888888/224/3221225979/index.m3u8
济南教育,http://39.134.144.6:8089/PLTV/88888888/224/3221225987/index.m3u8
济南鲁中,http://39.134.144.6:8089/PLTV/88888888/224/3221225910/index.m3u8
济南科教,http://39.134.144.6:8089/PLTV/88888888/224/3221225995/index.m3u8
长清新闻,http://39.134.144.6:8089/PLTV/88888888/224/3221225865/index.m3u8
章丘综合,http://39.134.144.6:8089/PLTV/88888888/224/3221226297/index.m3u8
济阳综合,http://39.134.144.6:8089/PLTV/88888888/224/3221225936/index.m3u8
平阴综合,http://39.134.144.6:8089/PLTV/88888888/224/3221226197/index.m3u8
商河综合,http://39.134.144.6:8089/PLTV/88888888/224/3221226266/index.m3u8
潍坊新闻,http://39.135.162.228:6610/shandong_cabletv.live.zte.com/223.99.253.7:8081/00/SNM/CHANNEL00000215/index.m3u8?IASHttpSessionId=RR32220210512000742670276&zte_bandwidth=1000&bandwidth=2540800&ispcode=3&timeformat
潍坊都市,http://39.135.162.228:6610/shandong_cabletv.live.zte.com/223.99.253.7:8081/00/SNM/CHANNEL00000216/index.m3u8?IASHttpSessionId=RR32220210512000742670276&zte_bandwidth=1000&bandwidth=2540800&ispcode=3&timeformat
潍坊奎文,http://39.135.162.228:6610/shandong_cabletv.live.zte.com/223.99.253.7:8081/00/SNM/CHANNEL00001027/index.m3u8?IASHttpSessionId=RR32220210512000742670276&zte_bandwidth=1000&bandwidth=2540800&ispcode=3&timeformat
诸城新闻,http://39.135.162.228:6610/shandong_cabletv.live.zte.com/223.99.253.7:8081/00/SNM/CHANNEL00001004/index.m3u8?IASHttpSessionId=RR32220210512000742670276&zte_bandwidth=1000&bandwidth=2540800&ispcode=3&timeformat
昌邑新闻,http://39.135.162.228:6610/shandong_cabletv.live.zte.com/223.99.253.7:8081/00/SNM/CHANNEL00001083/index.m3u8?IASHttpSessionId=RR32220210512000742670276&zte_bandwidth=1000&bandwidth=2540800&ispcode=3&timeformat
昌乐新闻,http://39.135.162.228:6610/shandong_cabletv.live.zte.com/223.99.253.7:8081/00/SNM/CHANNEL00001033/index.m3u8?IASHttpSessionId=RR32220210512000742670276&zte_bandwidth=1000&bandwidth=2540800&ispcode=3&timeformat
寿光新闻,http://39.135.162.228:6610/shandong_cabletv.live.zte.com/223.99.253.7:8081/00/SNM/CHANNEL00001000/index.m3u8?IASHttpSessionId=RR32220210512000742670276&zte_bandwidth=1000&bandwidth=2540800&ispcode=3&timeformat
寿光蔬菜,http://39.135.162.228:6610/shandong_cabletv.live.zte.com/223.99.253.7:8081/00/SNM/CHANNEL00001045/index.m3u8?IASHttpSessionId=RR32220210512000742670276&zte_bandwidth=1000&bandwidth=2540800&ispcode=3&timeformat
青州综合,http://39.135.162.228:6610/shandong_cabletv.live.zte.com/223.99.253.7:8081/00/SNM/CHANNEL00001042/index.m3u8?IASHttpSessionId=RR32220210512000742670276&zte_bandwidth=1000&bandwidth=2540800&ispcode=3&timeformat
青州文旅,http://39.135.162.228:6610/shandong_cabletv.live.zte.com/223.99.253.7:8081/00/SNM/CHANNEL00001057/index.m3u8?IASHttpSessionId=RR32220210512000742670276&zte_bandwidth=1000&bandwidth=2540800&ispcode=3&timeformat
临朐综合,http://39.135.162.228:6610/shandong_cabletv.live.zte.com/223.99.253.7:8081/00/SNM/CHANNEL00001085/index.m3u8?IASHttpSessionId=RR32220210512000742670276&zte_bandwidth=1000&bandwidth=2540800&ispcode=3&timeformat
高密新闻,http://39.135.162.228:6610/shandong_cabletv.live.zte.com/223.99.253.7:8081/00/SNM/CHANNEL00001089/index.m3u8?IASHttpSessionId=RR32220210512000742670276&zte_bandwidth=1000&bandwidth=2540800&ispcode=3&timeformat
青岛新闻,http://39.135.162.228:6610/shandong_cabletv.live.zte.com/223.99.253.7:8081/00/SNM/CHANNEL00000500/index.m3u8?IASHttpSessionId=RR32220210512000742670276&zte_bandwidth=1000&bandwidth=2540800&ispcode=3&timeformat
青岛生活,http://39.135.162.228:6610/shandong_cabletv.live.zte.com/223.99.253.7:8081/00/SNM/CHANNEL00000501/index.m3u8?IASHttpSessionId=RR32220210512000742670276&zte_bandwidth=1000&bandwidth=2540800&ispcode=3&timeformat
青岛影视,http://39.135.162.228:6610/shandong_cabletv.live.zte.com/223.99.253.7:8081/00/SNM/CHANNEL00000502/index.m3u8?IASHttpSessionId=RR32220210512000742670276&zte_bandwidth=1000&bandwidth=2540800&ispcode=3&timeformat
青岛财经,http://39.135.162.228:6610/shandong_cabletv.live.zte.com/223.99.253.7:8081/00/SNM/CHANNEL00000503/index.m3u8?IASHttpSessionId=RR32220210512000742670276&zte_bandwidth=1000&bandwidth=2540800&ispcode=3&timeformat
青岛都市,http://39.135.162.228:6610/shandong_cabletv.live.zte.com/223.99.253.7:8081/00/SNM/CHANNEL00000504/index.m3u8?IASHttpSessionId=RR32220210512000742670276&zte_bandwidth=1000&bandwidth=2540800&ispcode=3&timeformat
青岛青少旅游,http://39.135.162.228:6610/shandong_cabletv.live.zte.com/223.99.253.7:8081/00/SNM/CHANNEL00000505/index.m3u8?IASHttpSessionId=RR32220210512000742670276&zte_bandwidth=1000&bandwidth=2540800&ispcode=3&timeformat
黄岛新闻,http://39.135.162.228:6610/shandong_cabletv.live.zte.com/223.99.253.7:8081/00/SNM/CHANNEL00001086/index.m3u8?IASHttpSessionId=RR32220210512000742670276&zte_bandwidth=1000&bandwidth=2540800&ispcode=3&timeformat
黄岛生活,http://39.135.162.228:6610/shandong_cabletv.live.zte.com/223.99.253.7:8081/00/SNM/CHANNEL00001087/index.m3u8?IASHttpSessionId=RR32220210512000742670276&zte_bandwidth=1000&bandwidth=2540800&ispcode=3&timeformat
胶州新闻,http://39.135.162.228:6610/shandong_cabletv.live.zte.com/223.99.253.7:8081/00/SNM/CHANNEL00001074/index.m3u8?IASHttpSessionId=RR32220210512000742670276&zte_bandwidth=1000&bandwidth=2540800&ispcode=3&timeformat
即墨综合,http://39.135.162.228:6610/shandong_cabletv.live.zte.com/223.99.253.7:8081/00/SNM/CHANNEL00001080/index.m3u8?IASHttpSessionId=RR32220210512000742670276&zte_bandwidth=1000&bandwidth=2540800&ispcode=3&timeformat
莱西综合,http://39.135.162.228:6610/shandong_cabletv.live.zte.com/223.99.253.7:8081/00/SNM/CHANNEL00001067/index.m3u8?IASHttpSessionId=RR32220210512000742670276&zte_bandwidth=1000&bandwidth=2540800&ispcode=3&timeformat
平度综合,http://39.135.162.228:6610/shandong_cabletv.live.zte.com/223.99.253.7:8081/00/SNM/CHANNEL00001054/index.m3u8?IASHttpSessionId=RR32220210512000742670276&zte_bandwidth=1000&bandwidth=2540800&ispcode=3&timeformat
威海新闻,http://39.135.162.228:6610/shandong_cabletv.live.zte.com/223.99.253.7:8081/00/SNM/CHANNEL00000274/index.m3u8?IASHttpSessionId=RR32220210512000742670276&zte_bandwidth=1000&bandwidth=2540800&ispcode=3&timeformat
威海公共,http://39.135.162.228:6610/shandong_cabletv.live.zte.com/223.99.253.7:8081/00/SNM/CHANNEL00000275/index.m3u8?IASHttpSessionId=RR32220210512000742670276&zte_bandwidth=1000&bandwidth=2540800&ispcode=3&timeformat
乳山综合,http://39.135.162.228:6610/shandong_cabletv.live.zte.com/223.99.253.7:8081/00/SNM/CHANNEL00001049/index.m3u8?IASHttpSessionId=RR32220210512000742670276&zte_bandwidth=1000&bandwidth=2540800&ispcode=3&timeformat
文登新闻,http://39.135.162.228:6610/shandong_cabletv.live.zte.com/223.99.253.7:8081/00/SNM/CHANNEL00001017/index.m3u8?IASHttpSessionId=RR32220210512000742670276&zte_bandwidth=1000&bandwidth=2540800&ispcode=3&timeformat
荣成综合,http://39.135.162.228:6610/shandong_cabletv.live.zte.com/223.99.253.7:8081/00/SNM/CHANNEL00001053/index.m3u8?IASHttpSessionId=RR32220210512000742670276&zte_bandwidth=1000&bandwidth=2540800&ispcode=3&timeformat
烟台新闻,http://39.135.162.228:6610/shandong_cabletv.live.zte.com/223.99.253.7:8081/00/SNM/CHANNEL00000280/index.m3u8?IASHttpSessionId=RR32220210512000742670276&zte_bandwidth=1000&bandwidth=2540800&ispcode=3&timeformat
烟台公共,http://39.135.162.228:6610/shandong_cabletv.live.zte.com/223.99.253.7:8081/00/SNM/CHANNEL00000281/index.m3u8?IASHttpSessionId=RR32220210512000742670276&zte_bandwidth=1000&bandwidth=2540800&ispcode=3&timeformat
烟台经济科技,http://39.135.162.228:6610/shandong_cabletv.live.zte.com/223.99.253.7:8081/00/SNM/CHANNEL00000282/index.m3u8?IASHttpSessionId=RR32220210512000742670276&zte_bandwidth=1000&bandwidth=2540800&ispcode=3&timeformat
烟台影视,http://39.135.162.228:6610/shandong_cabletv.live.zte.com/223.99.253.7:8081/00/SNM/CHANNEL00000283/index.m3u8?IASHttpSessionId=RR32220210512000742670276&zte_bandwidth=1000&bandwidth=2540800&ispcode=3&timeformat
牟平新闻,http://39.135.162.228:6610/shandong_cabletv.live.zte.com/223.99.253.7:8081/00/SNM/CHANNEL00001076/index.m3u8?IASHttpSessionId=RR32220210512000742670276&zte_bandwidth=1000&bandwidth=2540800&ispcode=3&timeformat
牟平生活,http://39.135.162.228:6610/shandong_cabletv.live.zte.com/223.99.253.7:8081/00/SNM/CHANNEL00001077/index.m3u8?IASHttpSessionId=RR32220210512000742670276&zte_bandwidth=1000&bandwidth=2540800&ispcode=3&timeformat
栖霞综合,http://39.135.162.228:6610/shandong_cabletv.live.zte.com/223.99.253.7:8081/00/SNM/CHANNEL00001055/index.m3u8?IASHttpSessionId=RR32220210512000742670276&zte_bandwidth=1000&bandwidth=2540800&ispcode=3&timeformat
蓬莱新闻,http://39.135.162.228:6610/shandong_cabletv.live.zte.com/223.99.253.7:8081/00/SNM/CHANNEL00001088/index.m3u8?IASHttpSessionId=RR32220210512000742670276&zte_bandwidth=1000&bandwidth=2540800&ispcode=3&timeformat
长岛综合,http://39.135.162.228:6610/shandong_cabletv.live.zte.com/223.99.253.7:8081/00/SNM/CHANNEL00001090/index.m3u8?IASHttpSessionId=RR32220210512000742670276&zte_bandwidth=1000&bandwidth=2540800&ispcode=3&timeformat
海阳综合,http://223.99.187.106:6610/shandong_cabletv.live.zte.com/223.99.253.7:8081/00/SNM/CHANNEL00001091/1000.m3u8?zte_bandwidth=1000&IASHttpSessionId=RR8972720220317065933361036&ztecid=CHANNEL00001091&bandwidth=9470800&ispcode=3&timeformat=local&channel=CHANNEL00001091&m3u8_level=2
海阳综艺,http://39.136.54.83:6610/shandong_cabletv.live.zte.com/223.99.253.7:8081/00/SNM/CHANNEL00001092/1000.m3u8?zte_bandwidth=1000&IASHttpSessionId=RR8973420220317070106237758&ztecid=CHANNEL00001092&bandwidth=9470800&ispcode=3&timeformat=local&channel=CHANNEL00001092&m3u8_level=2
日照新闻,http://39.135.162.228:6610/shandong_cabletv.live.zte.com/223.99.253.7:8081/00/SNM/CHANNEL00000262/index.m3u8?IASHttpSessionId=RR32220210512000742670276&zte_bandwidth=1000&bandwidth=2540800&ispcode=3&timeformat
日照科教,http://39.135.162.228:6610/shandong_cabletv.live.zte.com/223.99.253.7:8081/00/SNM/CHANNEL00000263/index.m3u8?IASHttpSessionId=RR32220210512000742670276&zte_bandwidth=1000&bandwidth=2540800&ispcode=3&timeformat
日照公共,http://39.136.54.80:6610/shandong_cabletv.live.zte.com/223.99.253.7:8081/00/SNM/CHANNEL00001100/1000.m3u8?zte_bandwidth=1000&IASHttpSessionId=RR19840520220415001258115691&ztecid=CHANNEL00001100&bandwidth=2540800&ispcode=3&timeformat=local&channel=CHANNEL00001100&m3u8_level=2
岚山综合,http://39.135.162.228:6610/shandong_cabletv.live.zte.com/223.99.253.7:8081/00/SNM/CHANNEL00001044/index.m3u8?IASHttpSessionId=RR32220210512000742670276&zte_bandwidth=1000&bandwidth=2540800&ispcode=3&timeformat
莒县综合,http://39.135.162.228:6610/shandong_cabletv.live.zte.com/223.99.253.7:8081/00/SNM/CHANNEL00001014/index.m3u8?IASHttpSessionId=RR32220210512000742670276&zte_bandwidth=1000&bandwidth=2540800&ispcode=3&timeformat
五莲综合,http://39.135.162.228:6610/shandong_cabletv.live.zte.com/223.99.253.7:8081/00/SNM/CHANNEL00001068/index.m3u8?IASHttpSessionId=RR32220210512000742670276&zte_bandwidth=1000&bandwidth=2540800&ispcode=3&timeformat
淄博新闻,http://39.134.144.6:8089/PLTV/88888888/224/3221225986/index.m3u8
淄博都市,http://39.134.144.6:8089/PLTV/88888888/224/3221226061/index.m3u8
淄博生活,http://39.134.144.6:8089/PLTV/88888888/224/3221225985/index.m3u8
淄博公共,http://39.134.144.6:8089/PLTV/88888888/224/3221226014/index.m3u8
淄博科教,http://39.134.144.6:8089/PLTV/88888888/224/3221225983/index.m3u8
高青综合,http://39.134.144.6:8089/PLTV/88888888/224/3221225905/index.m3u8
桓台新闻,http://39.134.144.6:8089/PLTV/88888888/224/3221225993/index.m3u8
沂源新闻,http://39.134.144.6:8089/PLTV/88888888/224/3221225916/index.m3u8
济宁综合,http://39.134.144.6:8089/PLTV/88888888/224/3221226333/index.m3u8
济宁公共,http://39.134.144.6:8089/PLTV/88888888/224/3221226331/index.m3u8
济宁教育,http://39.134.144.6:8089/PLTV/88888888/224/3221226063/index.m3u8
金乡新闻,http://39.134.144.6:8089/PLTV/88888888/224/3221226010/index.m3u8
邹城新闻,http://39.134.144.6:8089/PLTV/88888888/224/3221226034/index.m3u8
泗水新闻,http://39.134.144.6:8089/PLTV/88888888/224/3221226341/index.m3u8
梁山新闻,http://39.134.144.6:8089/PLTV/88888888/224/3221226321/index.m3u8
曲阜新闻,http://39.134.144.6:8089/PLTV/88888888/224/3221226209/index.m3u8
微山TV-1,http://39.134.144.6:8089/PLTV/88888888/224/3221226250/index.m3u8
嘉祥新闻,http://39.134.144.6:8089/PLTV/88888888/224/3221225814/index.m3u8
兖州新闻,http://39.134.144.6:8089/PLTV/88888888/224/3221226140/index.m3u8
菏泽新闻,http://39.134.144.6:8089/PLTV/88888888/224/3221225980/index.m3u8
菏泽公共,http://39.134.144.6:8089/PLTV/88888888/224/3221225860/index.m3u8
鄄城综合,http://39.134.144.6:8089/PLTV/88888888/224/3221226316/index.m3u8
郓城新闻,http://39.134.144.6:8089/PLTV/88888888/224/3221226099/index.m3u8
巨野新闻,http://39.134.144.6:8089/PLTV/88888888/224/3221226134/index.m3u8
定陶TV-1,http://39.134.144.6:8089/PLTV/88888888/224/3221226176/index.m3u8
单县综合,http://39.134.144.6:8089/PLTV/88888888/224/3221226264/index.m3u8
fmmipv6央视频道,#genre#
CCTV-1_综合,http://[2409:8087:4c0a:22:1::11]:6410/170000001115/UmaiCHAN111128BESTVSMGSMG/index.m3u8?AuthInfo=9kOOdBn7MFF%2F2bWjKgahUU6FFmRK8Hl0ytyd5e5kWGEwoDIwMxbrlyyVy9x6ZDKnldIYKOjBOUjRyoym5n7Kg0yIYstFTUfqtC14fzxhy5Y
CCTV-2_财经,http://[2409:8087:4c0a:22:1::11]:6410/170000001115/UmaiCHAN5000036BESTVSMGSMG/index.m3u8?AuthInfo=9kOOdBn7MFF%2F2bWjKgahUSpr1AVNI633ampcuzdN%2BfGVSARKsxkWGZw7vFUuOj2QZHeRzosIxVbl7i2QHFATHA3k5wDWG1qHkZQAleNv%2FbI
CCTV-3_综艺,http://[2409:8087:4c0a:22:1::11]:6410/170000001115/UmaiCHAN638727c125355/index.m3u8?AuthInfo=9kOOdBn7MFF%2F2bWjKgahUSPTZ4CK5oLfjaEYe9dogNMUNNEYLCPUtKY62j1Wp5u04wipypKUQ1TTuR2lXvBl5YpHqBJmlA19x22TD9bUOjk
CCTV-4_中文国际,http://[2409:8087:4c0a:22:1::11]:6410/170000001115/UmaiCHAN5000037BESTVSMGSMG/index.m3u8?AuthInfo=9kOOdBn7MFF%2F2bWjKgahUSpr1AVNI633ampcuzdN%2BfH0ZQXwaiVktPr6ILPKXqwOUC2ZXft7ZULN6h9qLQPFOTSlVTfophiKaMb8h1kPV74
CCTV-5_体育,http://[2409:8087:4c0a:22:1::11]:6410/170000001115/UmaiCHAN638727e617ca0/index.m3u8?AuthInfo=9kOOdBn7MFF%2F2bWjKgahUSPTZ4CK5oLfjaEYe9dogNMSXw4ajlL%2FoUYC2RZQQDco6uQSifXBocz5ID6RePfIKQ4rFWiHjq%2FeZoDmrzW%2FKlw
CCTV-5+_体育赛事,http://[2409:8087:4c0a:22:1::11]:6410/170000001115/UmaiCHAN63872908d48f9/index.m3u8?AuthInfo=9kOOdBn7MFF%2F2bWjKgahUSBx06ZL9Bo6JOM%2BSTjxZRK254G1jtietGzDaHvFNRtjXOvFnbf%2BTao33JqYlfMYYn2z3agOn9gvNMT9KmBaR9o
CCTV-6_电影,http://[2409:8087:4c0a:22:1::11]:6410/170000001115/UmaiCHAN638728804b1f9/index.m3u8?AuthInfo=9kOOdBn7MFF%2F2bWjKgahUdDh4EPdDnvGlSBkYaxFdazJhFQmuq4XUiks9ZrIlJN%2BknLs8H%2BSxcDXy%2BTesEc8Q0KCN89MjYoj85Sol1kbKI4
CCTV-7_国防军事,http://[2409:8087:4c0a:22:1::11]:6410/170000001115/UmaiCHAN5000038BESTVSMGSMG/index.m3u8?AuthInfo=9kOOdBn7MFF%2F2bWjKgahUSpr1AVNI633ampcuzdN%2BfHYKFve4MwNzRa0jPXeHjqnBjPmzSdKDNWNHhnZSaMGCXKmdx8d%2BnYdhVK5ge22ot4
CCTV-8_电视剧,http://[2409:8087:4c0a:22:1::11]:6410/170000001115/UmaiCHAN638728970aa82/index.m3u8?AuthInfo=9kOOdBn7MFF%2F2bWjKgahUdDh4EPdDnvGlSBkYaxFdaymid9ta2tVUW0%2FdVrFqszC1EVEkAbpip1IYxn%2Ba2aA%2BVAihIiw9D8ejUsDbfU0K68
CCTV-9_纪录,http://[2409:8087:4c0a:22:1::11]:6410/170000001115/UmaiCHAN5000039BESTVSMGSMG/index.m3u8?AuthInfo=9kOOdBn7MFF%2F2bWjKgahUSpr1AVNI633ampcuzdN%2BfHArfvJF2pWpm4RxcBNhZ7j9vEUeCQte%2BbQaOGNIUEEK%2B3RBE1BC9EUsM18gnb%2FyAA
CCTV-10_科教,http://[2409:8087:4c0a:22:1::11]:6410/170000001115/UmaiCHAN3949784BESTVSMGSMG/index.m3u8?AuthInfo=9kOOdBn7MFF%2F2bWjKgahUXt3TPFwzzdHCkOT9AjSv5OuXozn3alq9%2BUx7ZLG1w9aOfkLjZvYj56D3xkOAtSOIoLsdw8c1%2BCwLDg1aS4esN4
CCTV-11_戏曲,http://[2409:8087:4c0a:22:1::11]:6410/170000001115/UmaiCHAN6000053BESTVSMGSMG/index.m3u8?AuthInfo=9kOOdBn7MFF%2F2bWjKgahUTWDyIgRkFJBAHMhA2ayG0Qj2xHA4vdPGsjBbxSL3p%2FmAObVTfznR%2Fpc%2B76QYmLRMuL3Lj9iabhv8arW7kJe6%2F4
CCTV-12_社会与法,http://[2409:8087:4c0a:22:1::11]:6410/170000001115/UmaiCHAN5000040BESTVSMGSMG/index.m3u8?AuthInfo=9kOOdBn7MFF%2F2bWjKgahUd3JM2PCgDefrKOVZLNt0QMAmpLefguRLiOPXiDRWhxHg8yim2giTBA8RILsb%2B8Y5pkFUyZBE%2FkNJAbwncEegkU
CCTV-13_新闻,http://[2409:8087:4c0a:22:1::11]:6410/170000001115/UmaiCHAN6000054BESTVSMGSMG/index.m3u8?AuthInfo=9kOOdBn7MFF%2F2bWjKgahUTWDyIgRkFJBAHMhA2ayG0SuXozn3alq9%2BUx7ZLG1w9awc14iEUxQ5VsTsr5pEBsmF56tXUfsukRUpygmTCKvAI
CCTV-14_少儿,http://[2409:8087:4c0a:22:1::11]:6410/170000001115/UmaiCHAN3949788BESTVSMGSMG/index.m3u8?AuthInfo=9kOOdBn7MFF%2F2bWjKgahUXt3TPFwzzdHCkOT9AjSv5PYKFve4MwNzRa0jPXeHjqnp7khdLaCMP6L4QpTf84Oz6DvCG1%2BJ81QvStkxO%2FoGm8
CCTV-15_音乐,http://[2409:8087:4c0a:22:1::11]:6410/170000001115/UmaiCHAN6000055BESTVSMGSMG/index.m3u8?AuthInfo=9kOOdBn7MFF%2F2bWjKgahUTWDyIgRkFJBAHMhA2ayG0Tdo%2FUL80msfbhDYvoWpNl31Dy7jHvMl%2FzVUrNxhL1ek1YEGVDZ7lCg0LtKJY4Ku%2B8
CCTV-16_奥林匹克,http://[2409:8087:1a01:df::7005]/ottrrs.hl.chinamobile.com/PLTV/88888888/224/3221226100/index.m3u8
CCTV-17_农业农村,http://[2409:8087:4c0a:22:1::11]:6410/170000001115/UmaiCHAN638728afa13b4/index.m3u8?AuthInfo=9kOOdBn7MFF%2F2bWjKgahUdDh4EPdDnvGlSBkYaxFdaz%2FyAI9to%2FMBBt%2FivcdSfljJ1%2FqqamWUjAiBAxNssfyBlZUDSXAIMtStS86hRHFuJM
CCTV-4K_超高清,http://27.222.3.214/liveali-tp4k.cctv.cn/live/4K10M.stream/playlist.m3u8
CHC影迷电影,http://[2409:8087:4c0a:22:1::11]:6410/170000001115/UmaiCHAN6380764b172c9/index.m3u8?m3u8_level=2
CHC动作电影,http://[2409:8087:4c0a:22:1::11]:6410/170000001115/UmaiCHAN6380763222d00/index.m3u8?m3u8_level=2
CHC家庭影院,http://[2409:8087:4c0a:22:1::11]:6410/170000001115/UmaiCHAN63807601b19dd/index.m3u8?m3u8_level=2
CGTN英语,http://[2409:8087:4c0a:22:1::11]:6410/170000001115/UmaiCHAN63806f4f64099/index.m3u8?m3u8_level=2
CGTN记录,http://[2409:8087:4c0a:22:1::11]:6410/170000001115/UmaiCHAN63a15d0ee63f3/index.m3u8?m3u8_level=2
CGTN俄语,http://[2409:8087:4c0a:22:1::11]:6410/170000001115/UmaiCHAN638071d299009/index.m3u8?m3u8_level=2
CGTN法语,http://[2409:8087:4c0a:22:1::11]:6410/170000001115/UmaiCHAN63806fb631afe/index.m3u8?m3u8_level=2
CGTN西语,http://[2409:8087:4c0a:22:1::11]:6410/170000001115/UmaiCHAN63806f81c8eb5/index.m3u8?m3u8_level=2
CGTN阿语,http://livear.cgtn.com/1000a/prog_index.m3u8

fmmipv6卫视频道,#genre#
凤凰中文,http://116.162.6.192/1.v.smtcdns.net/qctv.fengshows.cn/live/0701pcc72.m3u8
凤凰资讯,http://116.162.6.192/1.v.smtcdns.net/qctv.fengshows.cn/live/0701pin72.m3u8
凤凰香港,http://116.162.6.192/1.v.smtcdns.net/qctv.fengshows.cn/live/0701phk72.m3u8
北京卫视,http://[2409:8087:1a01:df::7005]:80/ottrrs.hl.chinamobile.com/PLTV/88888888/224/3221226450/index.m3u8
湖南卫视,http://[2409:8087:1a01:df::7005]:80/ottrrs.hl.chinamobile.com/PLTV/88888888/224/3221226307/index.m3u8
东方卫视,http://[2409:8087:1a01:df::7005]:80/ottrrs.hl.chinamobile.com/PLTV/88888888/224/3221226345/index.m3u8
四川卫视,http://[2409:8087:1a01:df::7005]:80/ottrrs.hl.chinamobile.com/PLTV/88888888/224/3221226338/index.m3u8
天津卫视,http://[2409:8087:1a01:df::7005]:80/ottrrs.hl.chinamobile.com/PLTV/88888888/224/3221226459/index.m3u8
安徽卫视,http://[2409:8087:1a01:df::7005]:80/ottrrs.hl.chinamobile.com/PLTV/88888888/224/3221226391/index.m3u8
山东卫视,http://[2409:8087:1a01:df::7005]:80/ottrrs.hl.chinamobile.com/PLTV/88888888/224/3221226456/index.m3u8
深圳卫视,http://[2409:8087:1a01:df::7005]:80/ottrrs.hl.chinamobile.com/PLTV/88888888/224/3221226313/index.m3u8
广东卫视,http://[2409:8087:1a01:df::7005]:80/ottrrs.hl.chinamobile.com/PLTV/88888888/224/3221226248/index.m3u8
广西卫视,http://[2409:8087:1a01:df::7005]:80/ottrrs.hl.chinamobile.com/PLTV/88888888/224/3221226549/index.m3u8
江苏卫视,http://[2409:8087:1a01:df::7005]:80/ottrrs.hl.chinamobile.com/PLTV/88888888/224/3221226310/index.m3u8
江西卫视,http://[2409:8087:1a01:df::7005]:80/ottrrs.hl.chinamobile.com/PLTV/88888888/224/3221226344/index.m3u8
河北卫视,http://[2409:8087:1a01:df::7005]:80/ottrrs.hl.chinamobile.com/PLTV/88888888/224/3221226406/index.m3u8
河南卫视,http://[2409:8087:1a01:df::7005]:80/ottrrs.hl.chinamobile.com/PLTV/88888888/224/3221226480/index.m3u8
浙江卫视,http://[2409:8087:1a01:df::7005]:80/ottrrs.hl.chinamobile.com/PLTV/88888888/224/3221226339/index.m3u8
海南卫视,http://[2409:8087:1a01:df::7005]:80/ottrrs.hl.chinamobile.com/PLTV/88888888/224/3221226465/index.m3u8
湖北卫视,http://[2409:8087:1a01:df::7005]:80/ottrrs.hl.chinamobile.com/PLTV/88888888/224/3221226477/index.m3u8
山西卫视,http://[2409:8087:5e01:34::21]:6610/ZTE_CMS/00000001000000060000000000000318/index.m3u8?IAS
东南卫视,http://[2409:8087:1a01:df::7005]:80/ottrrs.hl.chinamobile.com/PLTV/88888888/224/3221226341/index.m3u8
贵州卫视,http://[2409:8087:1a01:df::7005]:80/ottrrs.hl.chinamobile.com/PLTV/88888888/224/3221226474/index.m3u8
辽宁卫视,http://[2409:8087:1a01:df::7005]:80/ottrrs.hl.chinamobile.com/PLTV/88888888/224/3221226546/index.m3u8
重庆卫视,http://[2409:8087:1a01:df::7005]:80/ottrrs.hl.chinamobile.com/PLTV/88888888/224/3221226409/index.m3u8
黑龙江卫视,http://[2409:8087:1a01:df::7005]:80/ottrrs.hl.chinamobile.com/PLTV/88888888/224/3221226327/index.m3u8
内蒙古卫视,http://[2409:8087:5e01:34::20]:6610/ZTE_CMS/00000001000000060000000000000319/index.m3u8?IAS
宁夏卫视,http://[2409:8087:5e01:34::20]:6610/ZTE_CMS/00000001000000060000000000000309/index.m3u8?IAS
陕西卫视,http://[2409:8087:5e01:34::22]:6610/ZTE_CMS/00000001000000060000000000000313/index.m3u8?IAS
吉林卫视,http://[2409:8087:1a01:df::7005]:80/ottrrs.hl.chinamobile.com/PLTV/88888888/224/3221226397/index.m3u8
甘肃卫视,http://[2409:8087:1a0b:df::4005]:80/ottrrs.hl.chinamobile.com/PLTV/88888888/224/3221225633/index.m3u8
云南卫视,http://[2409:8087:5e01:34::22]:6610/ZTE_CMS/00000001000000060000000000000305/index.m3u8?IAS
三沙卫视,http://[2409:8087:5e01:34::21]:6610/ZTE_CMS/08984400000000060000000000000319/index.m3u8?IAS
青海卫视,http://[2409:8087:1a0b:df::4002]:80/ottrrs.hl.chinamobile.com/PLTV/88888888/224/3221225628/index.m3u8
新疆卫视,http://[2409:8087:1a0b:df::4005]:80/ottrrs.hl.chinamobile.com/PLTV/88888888/224/3221225635/index.m3u8
西藏卫视,http://[2409:8087:5e01:34::23]:6610/ZTE_CMS/00000001000000060000000000000317/index.m3u8?IAS
兵团卫视,http://[2409:8087:1a0b:df::4020]:80/ottrrs.hl.chinamobile.com/PLTV/88888888/224/3221226439/index.m3u8
延边卫视,http://[2409:8087:1a0b:df::4020]:80/ottrrs.hl.chinamobile.com/PLTV/88888888/224/3221226516/index.m3u8
安多卫视,http://[2409:8087:1a0b:df::4007]:80/ottrrs.hl.chinamobile.com/PLTV/88888888/224/3221225659/index.m3u8
厦门卫视,http://[2409:8087:5e01:34::22]:6610/ZTE_CMS/00000001000000060000000000000193/index.m3u8?IAS
康巴卫视,http://[2409:8087:1a0b:df::4005]:80/ottrrs.hl.chinamobile.com/PLTV/88888888/224/3221225660/index.m3u8
CETV-1,http://[2409:8087:1a0b:df::4020]:80/ottrrs.hl.chinamobile.com/PLTV/88888888/224/3221225652/index.m3u8
CETV-2,http://[2409:8087:1a0b:df::4013]:80/ottrrs.hl.chinamobile.com/PLTV/88888888/224/3221226425/index.m3u8
CETV-4,http://[2409:8087:1a0b:df::4020]:80/ottrrs.hl.chinamobile.com/PLTV/88888888/224/3221225783/index.m3u8

fmmipv6数字频道,#genre#
爱上4K,http://[2409:8087:5e01:34::23]:6610/ZTE_CMS/00000001000000060000000000000459/index.m3u8?IAS
纪实人文,http://[2409:8087:1a01:df::7005]:80/ottrrs.hl.chinamobile.com/PLTV/88888888/224/3221225738/index.m3u8
纪实科教,http://[2409:8087:1a01:df::7005]:80/ottrrs.hl.chinamobile.com/PLTV/88888888/224/3221225729/index.m3u8
劲爆体育,http://[2409:8087:5e08:24::12]:6610/000000001000/2000000002000000008/index.m3u8?stbId=3&livemode=1&HlsProfileId=&channel-id=hnbblive&Contentid=2000000002000000008&IASHttpSessionId=OTT19019320240419154124000281
乐游频道,http://[2409:8087:5e08:24::12]:6610/000000001000/2000000002000000092/index.m3u8?stbId=3&livemode=1&HlsProfileId=&channel-id=hnbblive&Contentid=2000000002000000092&IASHttpSessionId=OTT19019320240419154124000281
卡酷少儿,http://[2409:8087:1a0b:df::4020]:80/ottrrs.hl.chinamobile.com/PLTV/88888888/224/3221225654/index.m3u8
金鹰卡通,http://[2409:8087:1a0b:df::4008]:80/ottrrs.hl.chinamobile.com/PLTV/88888888/224/3221225653/index.m3u8
金鹰纪实,http://[2409:8087:4c0a:22:1::11]:6410/170000001115/UmaiCHAN4766929BESTVSMGSMG/index.m3u8?m3u8_level=2
茶友频道,http://[2409:8087:4c0a:22:1::11]:6410/170000001115/UmaiCHAN638729d8aca53/index.m3u8?AuthInfo=9kOOdBn7MFF%2F2bWjKgahUSBx06ZL9Bo6JOM%2BSTjxZRIdUCZxTtaM%2Bza0L7mJjkPMmnEhAf%2Bi68sKjzRCbPoTU0E%2B6Pia2CkRtxgPs8Tmw7I
快乐垂钓,http://[2409:8087:4c0a:22:1::11]:6410/170000001115/UmaiCHAN638729b6002c4/index.m3u8?m3u8_level=2
哒啵赛事,http://[2409:8087:1a01:df::7005]:80/ottrrs.hl.chinamobile.com/PLTV/88888888/224/3221225675/index.m3u8
哒啵电竞,http://[2409:8087:5e08:24::12]:6610/000000001000/2000000003000000066/index.m3u8?stbId=3&livemode=1&HlsProfileId=&channel-id=hnbblive&Contentid=2000000003000000066&IASHttpSessionId=OTT19019320240419154124000281
优漫卡通,http://[2409:8087:1a0b:df::4005]:80/ottrrs.hl.chinamobile.com/PLTV/88888888/224/3221225656/index.m3u8
哈哈炫动,http://[2409:8087:1a0b:df::4001]:80/ottrrs.hl.chinamobile.com/PLTV/88888888/224/3221225657/index.m3u8
黑莓动画,http://[2409:8087:1a0b:df::4006]:80/ottrrs.hl.chinamobile.com/PLTV/88888888/224/3221225662/index.m3u8
黑莓电影,http://[2409:8087:1a0b:df::4014]:80/ottrrs.hl.chinamobile.com/PLTV/88888888/224/3221225743/index.m3u8
梨园频道,http://[2409:8087:4c0a:22:1::11]:6410/170000001115/UmaiCHAN6380788ba7bed/index.m3u8?AuthInfo=toEYVdLfxymUP2l9NZpQI5%2BK6T7j%2FlRm%2BvbM9VO7bA0q1S1k1f36SqqriM0FZoFSAJRfCt8SS7X6sTRmXb81a8O4H%2FdroDKjLoDeaMQdyJQ
求索记录,http://[2409:8087:5e08:24::12]:6610/000000001000/2000000004000000010/index.m3u8?stbId=3&livemode=1&HlsProfileId=&channel-id=hnbblive&Contentid=2000000004000000010&IASHttpSessionId=OTT19019320240419154124000281
求索动物,http://[2409:8087:5e08:24::12]:6610/000000001000/2000000004000000009/index.m3u8?stbId=3&livemode=1&HlsProfileId=&channel-id=hnbblive&Contentid=2000000004000000009&IASHttpSessionId=OTT19019320240419154124000281
求索科学,http://[2409:8087:5e08:24::12]:6610/000000001000/2000000004000000011/index.m3u8?stbId=3&livemode=1&HlsProfileId=&channel-id=hnbblive&Contentid=2000000004000000011&IASHttpSessionId=OTT19019320240419154124000281
求索生活,http://[2409:8087:5e08:24::12]:6610/000000001000/2000000004000000008/index.m3u8?stbId=3&livemode=1&HlsProfileId=&channel-id=hnbblive&Contentid=2000000004000000008&IASHttpSessionId=OTT19019320240419154124000281
超级体育,http://[2409:8087:1a01:df::7005]:80/ottrrs.hl.chinamobile.com/PLTV/88888888/224/3221225715/index.m3u8
超级电影,http://[2409:8087:1a01:df::7005]:80/ottrrs.hl.chinamobile.com/PLTV/88888888/224/3221225717/index.m3u8
超级视剧,http://[2409:8087:1a01:df::7005]:80/ottrrs.hl.chinamobile.com/PLTV/88888888/224/3221225716/index.m3u8
东北热剧,http://[2409:8087:1a01:df::7005]:80/ottrrs.hl.chinamobile.com/PLTV/88888888/224/3221225741/index.m3u8
海外剧场,http://[2409:8087:1a0b:df::4005]:80/ottrrs.hl.chinamobile.com/PLTV/88888888/224/3221225671/index.m3u8
中国功夫,http://[2409:8087:1a0b:df::4001]:80/ottrrs.hl.chinamobile.com/PLTV/88888888/224/3221225681/index.m3u8
军旅剧场,http://[2409:8087:1a0b:df::4018]:80/ottrrs.hl.chinamobile.com/PLTV/88888888/224/3221225676/index.m3u8
惊悚悬疑,http://[2409:8087:1a0b:df::4002]:80/ottrrs.hl.chinamobile.com/PLTV/88888888/224/3221225665/index.m3u8
潮妈辣婆,http://[2409:8087:1a0b:df::4007]:80/ottrrs.hl.chinamobile.com/PLTV/88888888/224/3221225685/index.m3u8
精品体育,http://[2409:8087:1a0b:df::4004]:80/ottrrs.hl.chinamobile.com/PLTV/88888888/224/3221225674/index.m3u8
精品纪录,http://[2409:8087:1a0b:df::4007]:80/ottrrs.hl.chinamobile.com/PLTV/88888888/224/3221225672/index.m3u8
家庭剧场,http://[2409:8087:1a0b:df::4007]:80/ottrrs.hl.chinamobile.com/PLTV/88888888/224/3221225677/index.m3u8
精品大剧,http://[2409:8087:1a0b:df::4001]:80/ottrrs.hl.chinamobile.com/PLTV/88888888/224/3221225670/index.m3u8
军事评论,http://[2409:8087:1a0b:df::4005]:80/ottrrs.hl.chinamobile.com/PLTV/88888888/224/3221225668/index.m3u8
明星大片,http://[2409:8087:1a0b:df::4005]:80/ottrrs.hl.chinamobile.com/PLTV/88888888/224/3221225664/index.m3u8
欢乐剧场,http://[2409:8087:1a01:df::7005]:80/ottrrs.hl.chinamobile.com/PLTV/88888888/224/3221225742/index.m3u8
精品萌宠,http://[2409:8087:1a01:df::7005]:80/ottrrs.hl.chinamobile.com/PLTV/88888888/224/3221226505/index.m3u8
超级综艺,http://[2409:8087:1a01:df::7005]:80/ottrrs.hl.chinamobile.com/PLTV/88888888/224/3221225714/index.m3u8
金牌综艺,http://[2409:8087:1a01:df::7005]:80/ottrrs.hl.chinamobile.com/PLTV/88888888/224/3221225666/index.m3u8

